wave.vcd
$date
	Fri Aug 23 15:15:22 2019
$end
$version
	Icarus Verilog
$end
$timescale
	1ps
$end
$scope module openmips_min_sopc_tb $end
$var reg 1 ! CLOCK_50 $end
$var reg 1 " rst $end
$scope module openmips_min_sopc0 $end
$var wire 1 # clk $end
$var wire 32 $ inst [31:0] $end
$var wire 32 % inst_addr [31:0] $end
$var wire 1 & rom_ce $end
$var wire 1 ' rst $end
$scope module openmips0 $end
$var wire 1 # clk $end
$var wire 8 ( ex_aluop_i [7:0] $end
$var wire 32 ) ex_reg1_i [31:0] $end
$var wire 32 * ex_reg2_i [31:0] $end
$var wire 5 + ex_wd_i [4:0] $end
$var wire 5 , ex_wd_o [4:0] $end
$var wire 32 - ex_wdata_o [31:0] $end
$var wire 1 . ex_wreg_i $end
$var wire 1 / ex_wreg_o $end
$var wire 8 0 id_aluop_o [7:0] $end
$var wire 32 1 id_inst_i [31:0] $end
$var wire 32 2 id_pc_i [31:0] $end
$var wire 32 3 id_reg1_o [31:0] $end
$var wire 32 4 id_reg2_o [31:0] $end
$var wire 5 5 id_wd_o [4:0] $end
$var wire 1 6 id_wreg_o $end
$var wire 5 7 mem_wd_i [4:0] $end
$var wire 5 8 mem_wd_o [4:0] $end
$var wire 32 9 mem_wdata_i [31:0] $end
$var wire 32 : mem_wdata_o [31:0] $end
$var wire 1 ; mem_wreg_i $end
$var wire 1 < mem_wreg_o $end
$var wire 32 = pc [31:0] $end
$var wire 5 > reg1_addr [4:0] $end
$var wire 32 ? reg1_data [31:0] $end
$var wire 1 @ reg1_read $end
$var wire 5 A reg2_addr [4:0] $end
$var wire 32 B reg2_data [31:0] $end
$var wire 1 C reg2_read $end
$var wire 32 D rom_addr_o [31:0] $end
$var wire 1 & rom_ce_o $end
$var wire 32 E rom_data_i [31:0] $end
$var wire 1 ' rst $end
$var wire 32 F wb_data_i [31:0] $end
$var wire 5 G wb_wd_i [4:0] $end
$var wire 1 H wb_wreg_o $end
$scope module pc_reg0 $end
$var wire 1 # clk $end
$var wire 1 ' rst $end
$var reg 1 I ce $end
$var reg 32 J pc [31:0] $end
$upscope $end
$scope module if_id0 $end
$var wire 1 # clk $end
$var wire 32 K if_inst [31:0] $end
$var wire 32 L if_pc [31:0] $end
$var wire 1 ' rst $end
$var reg 32 M id_inst [31:0] $end
$var reg 32 N id_pc [31:0] $end
$upscope $end
$scope module id_0 $end
$var wire 32 O inst_i [31:0] $end
$var wire 6 P opcode [5:0] $end
$var wire 32 Q pc_i [31:0] $end
$var wire 32 R reg1_data_i [31:0] $end
$var wire 32 S reg2_data_i [31:0] $end
$var wire 1 ' rst $end
$var reg 8 T aluop_o [7:0] $end
$var reg 33 U imm [32:0] $end
$var reg 5 V reg1_addr_o [4:0] $end
$var reg 32 W reg1_o [31:0] $end
$var reg 1 X reg1_read_o $end
$var reg 5 Y reg2_addr_o [4:0] $end
$var reg 32 Z reg2_o [31:0] $end
$var reg 1 [ reg2_read_o $end
$var reg 5 \ wd_o [4:0] $end
$var reg 1 ] wreg_o $end
$upscope $end
$scope module id_ex0 $end
$var wire 1 # clk $end
$var wire 8 ^ id_aluop [7:0] $end
$var wire 32 _ id_reg1 [31:0] $end
$var wire 32 ` id_reg2 [31:0] $end
$var wire 5 a id_wd [4:0] $end
$var wire 1 6 id_wreg $end
$var wire 1 ' rst $end
$var reg 8 b ex_aluop [7:0] $end
$var reg 32 c ex_reg1 [31:0] $end
$var reg 32 d ex_reg2 [31:0] $end
$var reg 5 e ex_wd [4:0] $end
$var reg 1 f ex_wreg $end
$upscope $end
$scope module ex_0 $end
$var wire 8 g aluop_i [7:0] $end
$var wire 32 h reg1_i [31:0] $end
$var wire 32 i reg2_i [31:0] $end
$var wire 1 ' rst $end
$var wire 5 j wd_i [4:0] $end
$var wire 1 . wreg_i $end
$var reg 5 k wd_o [4:0] $end
$var reg 32 l wdata_o [31:0] $end
$var reg 1 m wreg_o $end
$upscope $end
$scope module ex_mem0 $end
$var wire 1 # clk $end
$var wire 5 n ex_wd [4:0] $end
$var wire 32 o ex_wdata [31:0] $end
$var wire 1 / ex_wreg $end
$var wire 1 ' rst $end
$var reg 5 p mem_wd [4:0] $end
$var reg 32 q mem_wdata [31:0] $end
$var reg 1 r mem_wreg $end
$upscope $end
$scope module mem0 $end
$var wire 1 ' rst $end
$var wire 5 s wd_i [4:0] $end
$var wire 32 t wdata_i [31:0] $end
$var wire 1 ; wreg_i $end
$var reg 5 u wd_o [4:0] $end
$var reg 32 v wdata_o [31:0] $end
$var reg 1 w wreg_o $end
$upscope $end
$scope module mem_wb0 $end
$var wire 1 # clk $end
$var wire 5 x mem_wd [4:0] $end
$var wire 32 y mem_wdata [31:0] $end
$var wire 1 < mem_wreg $end
$var wire 1 ' rst $end
$var reg 5 z wb_wd [4:0] $end
$var reg 32 { wb_wdata [31:0] $end
$var reg 1 | wb_wreg $end
$upscope $end
$scope module regfile0 $end
$var wire 1 # clk $end
$var wire 5 } raddr1 [4:0] $end
$var wire 5 ~ raddr2 [4:0] $end
$var wire 1 @ re1 $end
$var wire 1 C re2 $end
$var wire 1 ' rst $end
$var wire 5 !" waddr [4:0] $end
$var wire 32 "" wdata [31:0] $end
$var wire 1 H we $end
$var reg 32 #" rdata1 [31:0] $end
$var reg 32 $" rdata2 [31:0] $end
$upscope $end
$upscope $end
$scope module inst_rom0 $end
$var wire 32 %" addr [31:0] $end
$var wire 1 & ce $end
$var reg 32 &" inst [31:0] $end
$upscope $end
$upscope $end
$upscope $end
$enddefinitions $end
#0
$dumpvars
bx &"
bx %"
b0 $"
b0 #"
bx ""
bx !"
b0 ~
b0 }
x|
bx {
bx z
b0 y
b0 x
0w
b0 v
b0 u
bx t
bx s
xr
bx q
bx p
b0 o
b0 n
0m
b0 l
b0 k
bx j
bx i
bx h
bx g
xf
bx e
bx d
bx c
bx b
b0 a
b0 `
b0 _
b0 ^
0]
b0 \
0[
b0 Z
b0 Y
0X
b0 W
b0 V
bx U
b0 T
b0 S
b0 R
bx Q
bx P
bx O
bx N
bx M
bx L
bx K
bx J
xI
xH
bx G
bx F
bx E
bx D
0C
b0 B
b0 A
0@
b0 ?
b0 >
bx =
0<
x;
b0 :
bx 9
b0 8
bx 7
06
b0 5
b0 4
b0 3
bx 2
bx 1
b0 0
0/
x.
b0 -
b0 ,
bx +
bx *
bx )
bx (
1'
x&
bx %
bx $
0#
1"
0!
$end
#10000
b0 &"
b0 $
b0 E
b0 K
b0 P
0I
0&
b0 J
b0 =
b0 L
b0 %
b0 D
b0 %"
b0 M
b0 1
b0 O
b0 N
b0 2
b0 Q
0f
0.
b0 e
b0 +
b0 j
b0 d
b0 *
b0 i
b0 c
b0 )
b0 h
b0 b
b0 (
b0 g
0r
0;
b0 p
b0 7
b0 s
b0 q
b0 9
b0 t
0|
0H
b0 z
b0 G
b0 !"
b0 {
b0 F
b0 ""
1!
1#
#20000
0!
0#
#30000
1!
1#
#40000
0!
0#
#50000
1!
1#
#60000
0!
0#
#70000
1!
1#
#80000
0!
0#
#90000
1!
1#
#100000
0!
0#
#110000
1!
1#
#120000
0!
0#
#130000
1!
1#
#140000
0!
0#
#150000
1!
1#
#160000
0!
0#
#170000
1!
1#
#180000
0!
0#
#190000
1!
1#
#195000
bx Z
bx 4
bx `
0"
0'
#200000
0!
0#
#210000
b110100000000010001000100000000 &"
b110100000000010001000100000000 $
b110100000000010001000100000000 E
b110100000000010001000100000000 K
1I
1&
bx d
bx *
bx i
1!
1#
#220000
0!
0#
#230000
b1000100000000 Z
b1000100000000 4
b1000100000000 `
b1000100000000 U
1X
1@
1]
16
b100101 T
b100101 0
b100101 ^
b1 Y
b1 A
b1 ~
b1 \
b1 5
b1 a
b110100000000100000000000100000 &"
b110100000000100000000000100000 $
b110100000000100000000000100000 E
b110100000000100000000000100000 K
b1101 P
b110100000000010001000100000000 M
b110100000000010001000100000000 1
b110100000000010001000100000000 O
b100 J
b100 =
b100 L
b100 %
b100 D
b100 %"
1!
1#
#240000
0!
0#
#250000
b100000 Z
b100000 4
b100000 `
b110100000000111111111100000000 &"
b110100000000111111111100000000 $
b110100000000111111111100000000 E
b110100000000111111111100000000 K
b100000 U
b10 Y
b10 A
b10 ~
1X
1@
b10 \
b10 5
b10 a
1]
16
b1000100000000 l
b1000100000000 -
b1000100000000 o
1m
1/
b1 k
b1 ,
b1 n
b1000 J
b1000 =
b1000 L
b1000 %
b1000 D
b1000 %"
b110100000000100000000000100000 M
b110100000000100000000000100000 1
b110100000000100000000000100000 O
b100 N
b100 2
b100 Q
1f
1.
b1 e
b1 +
b1 j
b1000100000000 d
b1000100000000 *
b1000100000000 i
b100101 b
b100101 (
b100101 g
1!
1#
#260000
0!
0#
#270000
b1111111100000000 Z
b1111111100000000 4
b1111111100000000 `
1w
1<
b1 u
b1 8
b1 x
b1000100000000 v
b1000100000000 :
b1000100000000 y
b100000 l
b100000 -
b100000 o
b10 k
b10 ,
b10 n
b1111111100000000 U
b11 Y
b11 A
b11 ~
1X
1@
b11 \
b11 5
b11 a
1]
16
b110100000001001111111111111111 &"
b110100000001001111111111111111 $
b110100000001001111111111111111 E
b110100000001001111111111111111 K
1r
1;
b1 p
b1 7
b1 s
b1000100000000 q
b1000100000000 9
b1000100000000 t
b10 e
b10 +
b10 j
b100000 d
b100000 *
b100000 i
b110100000000111111111100000000 M
b110100000000111111111100000000 1
b110100000000111111111100000000 O
b1000 N
b1000 2
b1000 Q
b1100 J
b1100 =
b1100 L
b1100 %
b1100 D
b1100 %"
1!
1#
#280000
0!
0#
#290000
b1111111111111111 Z
b1111111111111111 4
b1111111111111111 `
bx &"
bx $
bx E
bx K
b1111111111111111 U
b100 Y
b100 A
b100 ~
1X
1@
b100 \
b100 5
b100 a
1]
16
b1111111100000000 l
b1111111100000000 -
b1111111100000000 o
b11 k
b11 ,
b11 n
b10 u
b10 8
b10 x
b100000 v
b100000 :
b100000 y
b10000 J
b10000 =
b10000 L
b10000 %
b10000 D
b10000 %"
b110100000001001111111111111111 M
b110100000001001111111111111111 1
b110100000001001111111111111111 O
b1100 N
b1100 2
b1100 Q
b11 e
b11 +
b11 j
b1111111100000000 d
b1111111100000000 *
b1111111100000000 i
b10 p
b10 7
b10 s
b100000 q
b100000 9
b100000 t
1|
1H
b1 z
b1 G
b1 !"
b1000100000000 {
b1000100000000 F
b1000100000000 ""
1!
1#
#300000
0!
0#
#310000
b0xxxxxxxxxxxxxxxx Z
b0xxxxxxxxxxxxxxxx 4
b0xxxxxxxxxxxxxxxx `
b11 u
b11 8
b11 x
b1111111100000000 v
b1111111100000000 :
b1111111100000000 y
b1111111111111111 l
b1111111111111111 -
b1111111111111111 o
b100 k
b100 ,
b100 n
b0xxxxxxxxxxxxxxxx U
bx Y
bx A
bx ~
bx V
bx >
bx }
0X
0@
bx \
bx 5
bx a
0]
06
bx P
b10 z
b10 G
b10 !"
b100000 {
b100000 F
b100000 ""
b11 p
b11 7
b11 s
b1111111100000000 q
b1111111100000000 9
b1111111100000000 t
b100 e
b100 +
b100 j
b1111111111111111 d
b1111111111111111 *
b1111111111111111 i
bx M
bx 1
bx O
b10000 N
b10000 2
b10000 Q
b10100 J
b10100 =
b10100 L
b10100 %
b10100 D
b10100 %"
1!
1#
#320000
0!
0#
#330000
b0xxxxxxxxxxxxxxxx l
b0xxxxxxxxxxxxxxxx -
b0xxxxxxxxxxxxxxxx o
0m
0/
bx k
bx ,
bx n
b100 u
b100 8
b100 x
b1111111111111111 v
b1111111111111111 :
b1111111111111111 y
b11000 J
b11000 =
b11000 L
b11000 %
b11000 D
b11000 %"
b10100 N
b10100 2
b10100 Q
0f
0.
bx e
bx +
bx j
b0xxxxxxxxxxxxxxxx d
b0xxxxxxxxxxxxxxxx *
b0xxxxxxxxxxxxxxxx i
b100 p
b100 7
b100 s
b1111111111111111 q
b1111111111111111 9
b1111111111111111 t
b11 z
b11 G
b11 !"
b1111111100000000 {
b1111111100000000 F
b1111111100000000 ""
1!
1#
#340000
0!
0#
#350000
0w
0<
bx u
bx 8
bx x
b0xxxxxxxxxxxxxxxx v
b0xxxxxxxxxxxxxxxx :
b0xxxxxxxxxxxxxxxx y
b100 z
b100 G
b100 !"
b1111111111111111 {
b1111111111111111 F
b1111111111111111 ""
0r
0;
bx p
bx 7
bx s
b0xxxxxxxxxxxxxxxx q
b0xxxxxxxxxxxxxxxx 9
b0xxxxxxxxxxxxxxxx t
b11000 N
b11000 2
b11000 Q
b11100 J
b11100 =
b11100 L
b11100 %
b11100 D
b11100 %"
1!
1#
#360000
0!
0#
#370000
b100000 J
b100000 =
b100000 L
b100000 %
b100000 D
b100000 %"
b11100 N
b11100 2
b11100 Q
0|
0H
bx z
bx G
bx !"
b0xxxxxxxxxxxxxxxx {
b0xxxxxxxxxxxxxxxx F
b0xxxxxxxxxxxxxxxx ""
1!
1#
#380000
0!
0#
#390000
b100000 N
b100000 2
b100000 Q
b100100 J
b100100 =
b100100 L
b100100 %
b100100 D
b100100 %"
1!
1#
#400000
0!
0#
#410000
b101000 J
b101000 =
b101000 L
b101000 %
b101000 D
b101000 %"
b100100 N
b100100 2
b100100 Q
1!
1#
#420000
0!
0#
#430000
b101000 N
b101000 2
b101000 Q
b101100 J
b101100 =
b101100 L
b101100 %
b101100 D
b101100 %"
1!
1#
#440000
0!
0#
#450000
b110000 J
b110000 =
b110000 L
b110000 %
b110000 D
b110000 %"
b101100 N
b101100 2
b101100 Q
1!
1#
#460000
0!
0#
#470000
b110000 N
b110000 2
b110000 Q
b110100 J
b110100 =
b110100 L
b110100 %
b110100 D
b110100 %"
1!
1#
#480000
0!
0#
#490000
b111000 J
b111000 =
b111000 L
b111000 %
b111000 D
b111000 %"
b110100 N
b110100 2
b110100 Q
1!
1#
#500000
0!
0#
#510000
b111000 N
b111000 2
b111000 Q
b111100 J
b111100 =
b111100 L
b111100 %
b111100 D
b111100 %"
1!
1#
#520000
0!
0#
#530000
b1000000 J
b1000000 =
b1000000 L
b1000000 %
b1000000 D
b1000000 %"
b111100 N
b111100 2
b111100 Q
1!
1#
#540000
0!
0#
#550000
b1000000 N
b1000000 2
b1000000 Q
b1000100 J
b1000100 =
b1000100 L
b1000100 %
b1000100 D
b1000100 %"
1!
1#
#560000
0!
0#
#570000
b1001000 J
b1001000 =
b1001000 L
b1001000 %
b1001000 D
b1001000 %"
b1000100 N
b1000100 2
b1000100 Q
1!
1#
#580000
0!
0#
#590000
b1001000 N
b1001000 2
b1001000 Q
b1001100 J
b1001100 =
b1001100 L
b1001100 %
b1001100 D
b1001100 %"
1!
1#
#600000
0!
0#
#610000
b1010000 J
b1010000 =
b1010000 L
b1010000 %
b1010000 D
b1010000 %"
b1001100 N
b1001100 2
b1001100 Q
1!
1#
#620000
0!
0#
#630000
b1010000 N
b1010000 2
b1010000 Q
b1010100 J
b1010100 =
b1010100 L
b1010100 %
b1010100 D
b1010100 %"
1!
1#
#640000
0!
0#
#650000
b1011000 J
b1011000 =
b1011000 L
b1011000 %
b1011000 D
b1011000 %"
b1010100 N
b1010100 2
b1010100 Q
1!
1#
#660000
0!
0#
#670000
b1011000 N
b1011000 2
b1011000 Q
b1011100 J
b1011100 =
b1011100 L
b1011100 %
b1011100 D
b1011100 %"
1!
1#
#680000
0!
0#
#690000
b1100000 J
b1100000 =
b1100000 L
b1100000 %
b1100000 D
b1100000 %"
b1011100 N
b1011100 2
b1011100 Q
1!
1#
#700000
0!
0#
#710000
b1100000 N
b1100000 2
b1100000 Q
b1100100 J
b1100100 =
b1100100 L
b1100100 %
b1100100 D
b1100100 %"
1!
1#
#720000
0!
0#
#730000
b1101000 J
b1101000 =
b1101000 L
b1101000 %
b1101000 D
b1101000 %"
b1100100 N
b1100100 2
b1100100 Q
1!
1#
#740000
0!
0#
#750000
b1101000 N
b1101000 2
b1101000 Q
b1101100 J
b1101100 =
b1101100 L
b1101100 %
b1101100 D
b1101100 %"
1!
1#
#760000
0!
0#
#770000
b1110000 J
b1110000 =
b1110000 L
b1110000 %
b1110000 D
b1110000 %"
b1101100 N
b1101100 2
b1101100 Q
1!
1#
#780000
0!
0#
#790000
b1110000 N
b1110000 2
b1110000 Q
b1110100 J
b1110100 =
b1110100 L
b1110100 %
b1110100 D
b1110100 %"
1!
1#
#800000
0!
0#
#810000
b1111000 J
b1111000 =
b1111000 L
b1111000 %
b1111000 D
b1111000 %"
b1110100 N
b1110100 2
b1110100 Q
1!
1#
#820000
0!
0#
#830000
b1111000 N
b1111000 2
b1111000 Q
b1111100 J
b1111100 =
b1111100 L
b1111100 %
b1111100 D
b1111100 %"
1!
1#
#840000
0!
0#
#850000
b10000000 J
b10000000 =
b10000000 L
b10000000 %
b10000000 D
b10000000 %"
b1111100 N
b1111100 2
b1111100 Q
1!
1#
#860000
0!
0#
#870000
b10000000 N
b10000000 2
b10000000 Q
b10000100 J
b10000100 =
b10000100 L
b10000100 %
b10000100 D
b10000100 %"
1!
1#
#880000
0!
0#
#890000
b10001000 J
b10001000 =
b10001000 L
b10001000 %
b10001000 D
b10001000 %"
b10000100 N
b10000100 2
b10000100 Q
1!
1#
#900000
0!
0#
#910000
b10001000 N
b10001000 2
b10001000 Q
b10001100 J
b10001100 =
b10001100 L
b10001100 %
b10001100 D
b10001100 %"
1!
1#
#920000
0!
0#
#930000
b10010000 J
b10010000 =
b10010000 L
b10010000 %
b10010000 D
b10010000 %"
b10001100 N
b10001100 2
b10001100 Q
1!
1#
#940000
0!
0#
#950000
b10010000 N
b10010000 2
b10010000 Q
b10010100 J
b10010100 =
b10010100 L
b10010100 %
b10010100 D
b10010100 %"
1!
1#
#960000
0!
0#
#970000
b10011000 J
b10011000 =
b10011000 L
b10011000 %
b10011000 D
b10011000 %"
b10010100 N
b10010100 2
b10010100 Q
1!
1#
#980000
0!
0#
#990000
b10011000 N
b10011000 2
b10011000 Q
b10011100 J
b10011100 =
b10011100 L
b10011100 %
b10011100 D
b10011100 %"
1!
1#
#1000000
0!
0#
#1010000
b10100000 J
b10100000 =
b10100000 L
b10100000 %
b10100000 D
b10100000 %"
b10011100 N
b10011100 2
b10011100 Q
1!
1#
#1020000
0!
0#
#1030000
b10100000 N
b10100000 2
b10100000 Q
b10100100 J
b10100100 =
b10100100 L
b10100100 %
b10100100 D
b10100100 %"
1!
1#
#1040000
0!
0#
#1050000
b10101000 J
b10101000 =
b10101000 L
b10101000 %
b10101000 D
b10101000 %"
b10100100 N
b10100100 2
b10100100 Q
1!
1#
#1060000
0!
0#
#1070000
b10101000 N
b10101000 2
b10101000 Q
b10101100 J
b10101100 =
b10101100 L
b10101100 %
b10101100 D
b10101100 %"
1!
1#
#1080000
0!
0#
#1090000
b10110000 J
b10110000 =
b10110000 L
b10110000 %
b10110000 D
b10110000 %"
b10101100 N
b10101100 2
b10101100 Q
1!
1#
#1100000
0!
0#
#1110000
b10110000 N
b10110000 2
b10110000 Q
b10110100 J
b10110100 =
b10110100 L
b10110100 %
b10110100 D
b10110100 %"
1!
1#
#1120000
0!
0#
#1130000
b10111000 J
b10111000 =
b10111000 L
b10111000 %
b10111000 D
b10111000 %"
b10110100 N
b10110100 2
b10110100 Q
1!
1#
#1140000
0!
0#
#1150000
b10111000 N
b10111000 2
b10111000 Q
b10111100 J
b10111100 =
b10111100 L
b10111100 %
b10111100 D
b10111100 %"
1!
1#
#1160000
0!
0#
#1170000
b11000000 J
b11000000 =
b11000000 L
b11000000 %
b11000000 D
b11000000 %"
b10111100 N
b10111100 2
b10111100 Q
1!
1#
#1180000
0!
0#
#1190000
b11000000 N
b11000000 2
b11000000 Q
b11000100 J
b11000100 =
b11000100 L
b11000100 %
b11000100 D
b11000100 %"
1!
1#
