wave.vcd
$date
	Fri Dec  6 12:11:50 2019
$end
$version
	Icarus Verilog
$end
$timescale
	1ps
$end
$scope module openmips_min_sopc_tb $end
$var reg 1 ! CLOCK_50 $end
$var reg 1 " rst $end
$scope module openmips_min_sopc0 $end
$var wire 1 # clk $end
$var wire 32 $ inst [31:0] $end
$var wire 32 % inst_addr [31:0] $end
$var wire 1 & rom_ce $end
$var wire 1 ' rst $end
$scope module openmips0 $end
$var wire 32 ( HI [31:0] $end
$var wire 32 ) LO [31:0] $end
$var wire 1 # clk $end
$var wire 8 * ex_aluop_i [7:0] $end
$var wire 3 + ex_alusel_i [2:0] $end
$var wire 32 , ex_hi_o [31:0] $end
$var wire 32 - ex_lo_o [31:0] $end
$var wire 32 . ex_reg1_i [31:0] $end
$var wire 32 / ex_reg2_i [31:0] $end
$var wire 5 0 ex_wd_i [4:0] $end
$var wire 5 1 ex_wd_o [4:0] $end
$var wire 32 2 ex_wdata_o [31:0] $end
$var wire 1 3 ex_whilo_o $end
$var wire 1 4 ex_wreg_i $end
$var wire 1 5 ex_wreg_o $end
$var wire 8 6 id_aluop_o [7:0] $end
$var wire 3 7 id_alusel_o [2:0] $end
$var wire 32 8 id_inst_i [31:0] $end
$var wire 32 9 id_pc_i [31:0] $end
$var wire 32 : id_reg1_o [31:0] $end
$var wire 32 ; id_reg2_o [31:0] $end
$var wire 5 < id_wd_o [4:0] $end
$var wire 1 = id_wreg_o $end
$var wire 32 > mem_hi_i [31:0] $end
$var wire 32 ? mem_hi_o [31:0] $end
$var wire 32 @ mem_lo_i [31:0] $end
$var wire 32 A mem_lo_o [31:0] $end
$var wire 5 B mem_wd_i [4:0] $end
$var wire 5 C mem_wd_o [4:0] $end
$var wire 32 D mem_wdata_i [31:0] $end
$var wire 32 E mem_wdata_o [31:0] $end
$var wire 1 F mem_whilo_i $end
$var wire 1 G mem_whilo_o $end
$var wire 1 H mem_wreg_i $end
$var wire 1 I mem_wreg_o $end
$var wire 32 J pc [31:0] $end
$var wire 5 K reg1_addr [4:0] $end
$var wire 32 L reg1_data [31:0] $end
$var wire 1 M reg1_read $end
$var wire 5 N reg2_addr [4:0] $end
$var wire 32 O reg2_data [31:0] $end
$var wire 1 P reg2_read $end
$var wire 32 Q rom_addr_o [31:0] $end
$var wire 1 & rom_ce_o $end
$var wire 32 R rom_data_i [31:0] $end
$var wire 1 ' rst $end
$var wire 32 S wb_data_i [31:0] $end
$var wire 32 T wb_hi_i [31:0] $end
$var wire 32 U wb_lo_i [31:0] $end
$var wire 5 V wb_wd_i [4:0] $end
$var wire 1 W wb_whilo_i $end
$var wire 1 X wb_wreg_o $end
$scope module pc_reg0 $end
$var wire 1 # clk $end
$var wire 1 ' rst $end
$var reg 1 Y ce $end
$var reg 32 Z pc [31:0] $end
$upscope $end
$scope module if_id0 $end
$var wire 1 # clk $end
$var wire 32 [ if_inst [31:0] $end
$var wire 32 \ if_pc [31:0] $end
$var wire 1 ' rst $end
$var reg 32 ] id_inst [31:0] $end
$var reg 32 ^ id_pc [31:0] $end
$upscope $end
$scope module id_0 $end
$var wire 5 _ ex_wd_i [4:0] $end
$var wire 32 ` ex_wdata_i [31:0] $end
$var wire 1 5 ex_wreg_i $end
$var wire 6 a funct [5:0] $end
$var wire 32 b inst_i [31:0] $end
$var wire 26 c jump_addr [25:0] $end
$var wire 5 d mem_wd_i [4:0] $end
$var wire 32 e mem_wdata_i [31:0] $end
$var wire 1 I mem_wreg_i $end
$var wire 6 f opcode [5:0] $end
$var wire 32 g pc_i [31:0] $end
$var wire 32 h reg1_data_i [31:0] $end
$var wire 32 i reg2_data_i [31:0] $end
$var wire 1 ' rst $end
$var wire 5 j shamt [4:0] $end
$var reg 8 k aluop_o [7:0] $end
$var reg 3 l alusel_o [2:0] $end
$var reg 33 m imm [32:0] $end
$var reg 5 n reg1_addr_o [4:0] $end
$var reg 32 o reg1_o [31:0] $end
$var reg 1 p reg1_read_o $end
$var reg 5 q reg2_addr_o [4:0] $end
$var reg 32 r reg2_o [31:0] $end
$var reg 1 s reg2_read_o $end
$var reg 5 t wd_o [4:0] $end
$var reg 1 u wreg_o $end
$upscope $end
$scope module id_ex0 $end
$var wire 1 # clk $end
$var wire 8 v id_aluop [7:0] $end
$var wire 3 w id_alusel [2:0] $end
$var wire 32 x id_reg1 [31:0] $end
$var wire 32 y id_reg2 [31:0] $end
$var wire 5 z id_wd [4:0] $end
$var wire 1 = id_wreg $end
$var wire 1 ' rst $end
$var reg 8 { ex_aluop [7:0] $end
$var reg 3 | ex_alusel [2:0] $end
$var reg 32 } ex_reg1 [31:0] $end
$var reg 32 ~ ex_reg2 [31:0] $end
$var reg 5 !" ex_wd [4:0] $end
$var reg 1 "" ex_wreg $end
$upscope $end
$scope module ex_0 $end
$var wire 8 #" aluop_i [7:0] $end
$var wire 3 $" alusel_i [2:0] $end
$var wire 32 %" hi_i [31:0] $end
$var wire 64 &" hilo_temp [63:0] $end
$var wire 32 '" lo_i [31:0] $end
$var wire 32 (" mem_hi_i [31:0] $end
$var wire 32 )" mem_lo_i [31:0] $end
$var wire 1 G mem_whilo_i $end
$var wire 1 *" opdata1_mul $end
$var wire 32 +" opdata1_mult [31:0] $end
$var wire 1 ," opdata2_mul $end
$var wire 32 -" opdata2_mult [31:0] $end
$var wire 1 ." ov_sum $end
$var wire 32 /" reg1_i [31:0] $end
$var wire 32 0" reg1_i_not [31:0] $end
$var wire 1 1" reg1_lt_reg2 $end
$var wire 32 2" reg2_i [31:0] $end
$var wire 32 3" reg2_i_mux [31:0] $end
$var wire 32 4" result_sum [31:0] $end
$var wire 1 ' rst $end
$var wire 32 5" wb_hi_i [31:0] $end
$var wire 32 6" wb_lo_i [31:0] $end
$var wire 1 W wb_whilo_i $end
$var wire 5 7" wd_i [4:0] $end
$var wire 1 4 wreg_i $end
$var reg 32 8" HI [31:0] $end
$var reg 32 9" LO [31:0] $end
$var reg 32 :" arithmaticres [31:0] $end
$var reg 32 ;" hi_o [31:0] $end
$var reg 32 <" lo_o [31:0] $end
$var reg 32 =" logicout [31:0] $end
$var reg 32 >" moveres [31:0] $end
$var reg 64 ?" mulres [63:0] $end
$var reg 32 @" shiftres [31:0] $end
$var reg 5 A" wd_o [4:0] $end
$var reg 32 B" wdata_o [31:0] $end
$var reg 1 C" whilo_o $end
$var reg 1 D" wreg_o $end
$upscope $end
$scope module ex_mem0 $end
$var wire 1 # clk $end
$var wire 32 E" ex_hi [31:0] $end
$var wire 32 F" ex_lo [31:0] $end
$var wire 5 G" ex_wd [4:0] $end
$var wire 32 H" ex_wdata [31:0] $end
$var wire 1 3 ex_whilo $end
$var wire 1 5 ex_wreg $end
$var wire 1 ' rst $end
$var reg 32 I" mem_hi [31:0] $end
$var reg 32 J" mem_lo [31:0] $end
$var reg 5 K" mem_wd [4:0] $end
$var reg 32 L" mem_wdata [31:0] $end
$var reg 1 M" mem_whilo $end
$var reg 1 N" mem_wreg $end
$upscope $end
$scope module mem0 $end
$var wire 32 O" hi_i [31:0] $end
$var wire 32 P" lo_i [31:0] $end
$var wire 1 ' rst $end
$var wire 5 Q" wd_i [4:0] $end
$var wire 32 R" wdata_i [31:0] $end
$var wire 1 F whilo_i $end
$var wire 1 H wreg_i $end
$var reg 32 S" hi_o [31:0] $end
$var reg 32 T" lo_o [31:0] $end
$var reg 5 U" wd_o [4:0] $end
$var reg 32 V" wdata_o [31:0] $end
$var reg 1 W" whilo_o $end
$var reg 1 X" wreg_o $end
$upscope $end
$scope module mem_wb0 $end
$var wire 1 # clk $end
$var wire 32 Y" mem_hi [31:0] $end
$var wire 32 Z" mem_lo [31:0] $end
$var wire 5 [" mem_wd [4:0] $end
$var wire 32 \" mem_wdata [31:0] $end
$var wire 1 G mem_whilo $end
$var wire 1 I mem_wreg $end
$var wire 1 ' rst $end
$var reg 32 ]" wb_hi [31:0] $end
$var reg 32 ^" wb_lo [31:0] $end
$var reg 5 _" wb_wd [4:0] $end
$var reg 32 `" wb_wdata [31:0] $end
$var reg 1 a" wb_whilo $end
$var reg 1 b" wb_wreg $end
$upscope $end
$scope module regfile0 $end
$var wire 1 # clk $end
$var wire 5 c" raddr1 [4:0] $end
$var wire 5 d" raddr2 [4:0] $end
$var wire 1 M re1 $end
$var wire 1 P re2 $end
$var wire 32 e" regs_0 [31:0] $end
$var wire 32 f" regs_1 [31:0] $end
$var wire 32 g" regs_10 [31:0] $end
$var wire 32 h" regs_11 [31:0] $end
$var wire 32 i" regs_12 [31:0] $end
$var wire 32 j" regs_13 [31:0] $end
$var wire 32 k" regs_14 [31:0] $end
$var wire 32 l" regs_15 [31:0] $end
$var wire 32 m" regs_16 [31:0] $end
$var wire 32 n" regs_17 [31:0] $end
$var wire 32 o" regs_18 [31:0] $end
$var wire 32 p" regs_19 [31:0] $end
$var wire 32 q" regs_2 [31:0] $end
$var wire 32 r" regs_20 [31:0] $end
$var wire 32 s" regs_21 [31:0] $end
$var wire 32 t" regs_22 [31:0] $end
$var wire 32 u" regs_23 [31:0] $end
$var wire 32 v" regs_24 [31:0] $end
$var wire 32 w" regs_25 [31:0] $end
$var wire 32 x" regs_26 [31:0] $end
$var wire 32 y" regs_27 [31:0] $end
$var wire 32 z" regs_28 [31:0] $end
$var wire 32 {" regs_29 [31:0] $end
$var wire 32 |" regs_3 [31:0] $end
$var wire 32 }" regs_30 [31:0] $end
$var wire 32 ~" regs_31 [31:0] $end
$var wire 32 !# regs_4 [31:0] $end
$var wire 32 "# regs_5 [31:0] $end
$var wire 32 ## regs_6 [31:0] $end
$var wire 32 $# regs_7 [31:0] $end
$var wire 32 %# regs_8 [31:0] $end
$var wire 32 &# regs_9 [31:0] $end
$var wire 1 ' rst $end
$var wire 5 '# waddr [4:0] $end
$var wire 32 (# wdata [31:0] $end
$var wire 1 X we $end
$var reg 32 )# rdata1 [31:0] $end
$var reg 32 *# rdata2 [31:0] $end
$upscope $end
$scope module hilo_reg0 $end
$var wire 1 # clk $end
$var wire 32 +# hi_i [31:0] $end
$var wire 32 ,# lo_i [31:0] $end
$var wire 1 ' rst $end
$var wire 1 W we $end
$var reg 32 -# hi_o [31:0] $end
$var reg 32 .# lo_o [31:0] $end
$upscope $end
$upscope $end
$scope module inst_rom0 $end
$var wire 32 /# addr [31:0] $end
$var wire 1 & ce $end
$var reg 32 0# inst [31:0] $end
$upscope $end
$upscope $end
$upscope $end
$enddefinitions $end
#0
$dumpvars
bx 0#
bx /#
bx .#
bx -#
bx ,#
bx +#
b0 *#
b0 )#
bx (#
bx '#
bz &#
bz %#
bz $#
bz ##
bz "#
bz !#
bz ~"
bz }"
bz |"
bz {"
bz z"
bz y"
bz x"
bz w"
bz v"
bz u"
bz t"
bz s"
bz r"
bz q"
bz p"
bz o"
bz n"
bz m"
bz l"
bz k"
bz j"
bz i"
bz h"
bz g"
bz f"
b0 e"
b0 d"
b0 c"
xb"
xa"
bx `"
bx _"
bx ^"
bx ]"
b0 \"
b0 ["
b0 Z"
b0 Y"
0X"
0W"
b0 V"
b0 U"
b0 T"
b0 S"
bx R"
bx Q"
bx P"
bx O"
xN"
xM"
bx L"
bx K"
bx J"
bx I"
b0 H"
bx G"
b0 F"
b0 E"
xD"
0C"
b0 B"
bx A"
bx @"
b0 ?"
bx >"
bx ="
b0 <"
b0 ;"
b0 :"
b0 9"
b0 8"
bx 7"
bx 6"
bx 5"
bx 4"
bx 3"
bx 2"
x1"
bx 0"
bx /"
x."
bz -"
x,"
bz +"
x*"
b0 )"
b0 ("
bx '"
bx &"
bx %"
bx $"
bx #"
x""
bx !"
bx ~
bx }
bx |
bx {
b0 z
b0 y
b0 x
b0 w
b0 v
0u
b0 t
0s
b0 r
b0 q
0p
b0 o
b0 n
b0 m
b0 l
b0 k
bx j
b0 i
b0 h
bx g
bx f
b0 e
b0 d
bx c
bx b
bx a
b0 `
bx _
bx ^
bx ]
bx \
bx [
bx Z
xY
xX
xW
bx V
bx U
bx T
bx S
bx R
bx Q
0P
b0 O
b0 N
0M
b0 L
b0 K
bx J
0I
xH
0G
xF
b0 E
bx D
b0 C
bx B
b0 A
bx @
b0 ?
bx >
0=
b0 <
b0 ;
b0 :
bx 9
bx 8
b0 7
b0 6
x5
x4
03
b0 2
bx 1
bx 0
bx /
bx .
b0 -
b0 ,
bx +
bx *
bx )
bx (
1'
x&
bx %
bx $
0#
1"
0!
$end
#10000
b0 0#
b0 $
b0 R
b0 [
0D"
05
b0 A"
b0 1
b0 _
b0 G"
0."
b0 4"
b0 3"
0,"
0*"
b0 f
b0 j
b0 a
b0 c
b11111111111111111111111111111111 0"
01"
0Y
0&
b0 Z
b0 J
b0 \
b0 %
b0 Q
b0 /#
b0 ]
b0 8
b0 b
b0 ^
b0 9
b0 g
0""
04
b0 !"
b0 0
b0 7"
b0 ~
b0 /
b0 2"
b0 }
b0 .
b0 /"
b0 |
b0 +
b0 $"
b0 {
b0 *
b0 #"
b0 J"
b0 @
b0 P"
b0 I"
b0 >
b0 O"
0M"
0F
0N"
0H
b0 K"
b0 B
b0 Q"
b0 L"
b0 D
b0 R"
b0 ^"
b0 U
b0 6"
b0 ,#
b0 ]"
b0 T
b0 5"
b0 +#
0a"
0W
0b"
0X
b0 _"
b0 V
b0 '#
b0 `"
b0 S
b0 (#
b0 .#
b0 )
b0 '"
b0 -#
b0 (
b0 %"
1!
1#
#20000
0!
0#
#30000
1!
1#
#40000
0!
0#
#50000
1!
1#
#60000
0!
0#
#70000
1!
1#
#80000
0!
0#
#90000
1!
1#
#100000
0!
0#
#110000
1!
1#
#120000
0!
0#
#130000
1!
1#
#140000
0!
0#
#150000
1!
1#
#160000
0!
0#
#170000
1!
1#
#180000
0!
0#
#190000
1!
1#
#195000
bx ?"
1s
1P
1u
1=
b0 m
b10 l
b10 7
b10 w
b1111100 k
b1111100 6
b1111100 v
0"
0'
#200000
0!
0#
#210000
b0 m
1s
1P
1u
1=
b10 l
b10 7
b10 w
b0 r
b0 ;
b0 y
b110100000000011000000000000000 0#
b110100000000011000000000000000 $
b110100000000011000000000000000 R
b110100000000011000000000000000 [
b0 B"
b0 2
b0 `
b0 H"
1D"
15
b0 @"
1Y
1&
1""
14
b10 |
b10 +
b10 $"
b1111100 {
b1111100 *
b1111100 #"
1!
1#
#220000
0!
0#
#230000
b1000000000000000 r
b1000000000000000 ;
b1000000000000000 y
1p
1M
b100101 k
b100101 6
b100101 v
1X"
1I
b1000000000000000 m
b1 q
b1 N
b1 d"
0s
0P
b1 t
b1 <
b1 z
1u
1=
b1 l
b1 7
b1 w
b10000110000000000 0#
b10000110000000000 $
b10000110000000000 R
b10000110000000000 [
b1101 f
b11000000000000000 c
1N"
1H
b110100000000011000000000000000 ]
b110100000000011000000000000000 8
b110100000000011000000000000000 b
b100 Z
b100 J
b100 \
b100 %
b100 Q
b100 /#
1!
1#
#240000
0!
0#
#250000
bx *#
bx O
bx i
b10000 o
b10000 :
b10000 x
b1000000000000000 r
b1000000000000000 ;
b1000000000000000 y
1s
1P
b1111100 k
b1111100 6
b1111100 v
b110100001000010000000000010000 0#
b110100001000010000000000010000 $
b110100001000010000000000010000 R
b110100001000010000000000010000 [
b10000 m
0p
0M
1u
1=
b10 l
b10 7
b10 w
b1000000000000000 B"
b1000000000000000 2
b1000000000000000 `
b1000000000000000 H"
b1 A"
b1 1
b1 _
b1 G"
b1000000000000000 ="
b1000000000000000 4"
b1000000000000000 3"
b0 f
b10000 j
b10000110000000000 c
11"
b1000 Z
b1000 J
b1000 \
b1000 %
b1000 Q
b1000 /#
b10000110000000000 ]
b10000110000000000 8
b10000110000000000 b
b100 ^
b100 9
b100 g
b1 !"
b1 0
b1 7"
b1000000000000000 ~
b1000000000000000 /
b1000000000000000 2"
b1 |
b1 +
b1 $"
b100101 {
b100101 *
b100101 #"
1b"
1X
1!
1#
#260000
0!
0#
#270000
b0 *#
b0 O
b0 i
b10000 r
b10000 ;
b10000 y
bx )#
bx L
bx h
b10000000000000000000000000000000 o
b10000000000000000000000000000000 :
b10000000000000000000000000000000 x
1p
1M
b100101 k
b100101 6
b100101 v
b1 U"
b1 C
b1 d
b1 ["
b1000000000000000 V"
b1000000000000000 E
b1000000000000000 e
b1000000000000000 \"
b10000000000000000000000000000000 B"
b10000000000000000000000000000000 2
b10000000000000000000000000000000 `
b10000000000000000000000000000000 H"
b10000000000000000000000000000000 @"
b10000 m
0s
0P
b1 n
b1 K
b1 c"
b1 t
b1 <
b1 z
1u
1=
b1 l
b1 7
b1 w
b110100000000101000000000000000 0#
b110100000000101000000000000000 $
b110100000000101000000000000000 R
b110100000000101000000000000000 [
b11111111111111111111111111101111 0"
b1101 f
b0 j
b10000 a
b1000010000000000010000 c
b1 K"
b1 B
b1 Q"
b1000000000000000 L"
b1000000000000000 D
b1000000000000000 R"
b10000 }
b1000000000010000 4"
b10000 .
b10000 /"
b10 |
b10 +
b10 $"
b1111100 {
b1111100 *
b1111100 #"
b110100001000010000000000010000 ]
b110100001000010000000000010000 8
b110100001000010000000000010000 b
b1000 ^
b1000 9
b1000 g
b1100 Z
b1100 J
b1100 \
b1100 %
b1100 Q
b1100 /#
1!
1#
#280000
0!
0#
#290000
b1000000000000000 r
b1000000000000000 ;
b1000000000000000 y
b0 o
b0 :
b0 x
b100001010000000000 0#
b100001010000000000 $
b100001010000000000 R
b100001010000000000 [
b1000000000000000 m
b10 q
b10 N
b10 d"
b0 n
b0 K
b0 c"
1p
1M
b10 t
b10 <
b10 z
1u
1=
b1 l
b1 7
b1 w
b10000000000000000000000000010000 B"
b10000000000000000000000000010000 2
b10000000000000000000000000010000 `
b10000000000000000000000000010000 H"
b10000000000000000000000000010000 ="
b10000000000000000000000000000000 V"
b10000000000000000000000000000000 E
b10000000000000000000000000000000 e
b10000000000000000000000000000000 \"
b0 )#
b0 L
b0 h
b10000 3"
b0 a
b101000000000000000 c
b1111111111111111111111111111111 0"
01"
b10000 Z
b10000 J
b10000 \
b10000 %
b10000 Q
b10000 /#
b110100000000101000000000000000 ]
b110100000000101000000000000000 8
b110100000000101000000000000000 b
b1100 ^
b1100 9
b1100 g
b10000 ~
b10000 /
b10000 2"
b10000000000000000000000000000000 }
b10000000000000000000000000010000 4"
b10000000000000000000000000000000 .
b10000000000000000000000000000000 /"
b1 |
b1 +
b1 $"
b100101 {
b100101 *
b100101 #"
b10000000000000000000000000000000 L"
b10000000000000000000000000000000 D
b10000000000000000000000000000000 R"
b1 _"
b1 V
b1 '#
b1000000000000000 `"
b1000000000000000 S
b1000000000000000 (#
1!
1#
#300000
0!
0#
#310000
bx *#
bx O
bx i
b1000000000000000 B"
b1000000000000000 2
b1000000000000000 `
b1000000000000000 H"
b1000000000000000 r
b1000000000000000 ;
b1000000000000000 y
b10000 o
b10000 :
b10000 x
1s
1P
b1111100 k
b1111100 6
b1111100 v
b10000000000000000000000000010000 V"
b10000000000000000000000000010000 E
b10000000000000000000000000010000 e
b10000000000000000000000000010000 \"
b10 A"
b10 1
b10 _
b10 G"
b1000000000000000 ="
b10000 m
0p
0M
1u
1=
b10 l
b10 7
b10 w
b110100010000100000000000000001 0#
b110100010000100000000000000001 $
b110100010000100000000000000001 R
b110100010000100000000000000001 [
b1000000000000000 3"
b11111111111111111111111111111111 0"
11"
b0 f
b10000 j
b100001010000000000 c
b1000000000000000 f"
b10000000000000000000000000000000 `"
b10000000000000000000000000000000 S
b10000000000000000000000000000000 (#
b10000000000000000000000000010000 L"
b10000000000000000000000000010000 D
b10000000000000000000000000010000 R"
b10 !"
b10 0
b10 7"
b1000000000000000 ~
b1000000000000000 /
b1000000000000000 2"
b0 }
b1000000000000000 4"
b0 .
b0 /"
b100001010000000000 ]
b100001010000000000 8
b100001010000000000 b
b10000 ^
b10000 9
b10000 g
b10100 Z
b10100 J
b10100 \
b10100 %
b10100 Q
b10100 /#
1!
1#
#320000
0!
0#
#330000
b0 *#
b0 O
b0 i
bx )#
bx L
bx h
b10000000000000000000000000000000 o
b10000000000000000000000000000000 :
b10000000000000000000000000000000 x
b1 r
b1 ;
b1 y
1p
1M
b100101 k
b100101 6
b100101 v
b110100000000110000000000000000 0#
b110100000000110000000000000000 $
b110100000000110000000000000000 R
b110100000000110000000000000000 [
b1 m
0s
0P
b10 n
b10 K
b10 c"
b10 t
b10 <
b10 z
1u
1=
b1 l
b1 7
b1 w
b10000000000000000000000000000000 B"
b10000000000000000000000000000000 2
b10000000000000000000000000000000 `
b10000000000000000000000000000000 H"
b10 U"
b10 C
b10 d
b10 ["
b1000000000000000 V"
b1000000000000000 E
b1000000000000000 e
b1000000000000000 \"
b1101 f
b0 j
b1 a
b10000100000000000000001 c
b11111111111111111111111111101111 0"
b11000 Z
b11000 J
b11000 \
b11000 %
b11000 Q
b11000 /#
b110100010000100000000000000001 ]
b110100010000100000000000000001 8
b110100010000100000000000000001 b
b10100 ^
b10100 9
b10100 g
b10000 }
b1000000000010000 4"
b10000 .
b10000 /"
b10 |
b10 +
b10 $"
b1111100 {
b1111100 *
b1111100 #"
b10 K"
b10 B
b10 Q"
b1000000000000000 L"
b1000000000000000 D
b1000000000000000 R"
b10000000000000000000000000010000 `"
b10000000000000000000000000010000 S
b10000000000000000000000000010000 (#
b10000000000000000000000000000000 f"
1!
1#
#340000
0!
0#
#350000
b0 r
b0 ;
b0 y
b0 o
b0 :
b0 x
b0 )#
b0 L
b0 h
b10000000000000000000000000000000 V"
b10000000000000000000000000000000 E
b10000000000000000000000000000000 e
b10000000000000000000000000000000 \"
b10000000000000000000000000000001 B"
b10000000000000000000000000000001 2
b10000000000000000000000000000001 `
b10000000000000000000000000000001 H"
b10000000000000000000000000000001 ="
b0 m
b11 q
b11 N
b11 d"
b0 n
b0 K
b0 c"
1p
1M
b11 t
b11 <
b11 z
1u
1=
b1 l
b1 7
b1 w
b10000010001100000100001 0#
b10000010001100000100001 $
b10000010001100000100001 R
b10000010001100000100001 [
b1 3"
1,"
b1111111111111111111111111111111 0"
01"
b0 a
b110000000000000000 c
b10000000000000000000000000010000 f"
b10 _"
b10 V
b10 '#
b1000000000000000 `"
b1000000000000000 S
b1000000000000000 (#
b10000000000000000000000000000000 L"
b10000000000000000000000000000000 D
b10000000000000000000000000000000 R"
b1 ~
b1 /
b1 2"
b10000000000000000000000000000000 }
b10000000000000000000000000000001 4"
b10000000000000000000000000000000 .
b10000000000000000000000000000000 /"
b1 |
b1 +
b1 $"
b100101 {
b100101 *
b100101 #"
b110100000000110000000000000000 ]
b110100000000110000000000000000 8
b110100000000110000000000000000 b
b11000 ^
b11000 9
b11000 g
b11100 Z
b11100 J
b11100 \
b11100 %
b11100 Q
b11100 /#
1!
1#
#360000
0!
0#
#370000
b10000000000000000000000000010000 r
b10000000000000000000000000010000 ;
b10000000000000000000000000010000 y
b10000000000000000000000000010000 *#
b10000000000000000000000000010000 O
b10000000000000000000000000010000 i
b10000000000000000000000000000000 )#
b10000000000000000000000000000000 L
b10000000000000000000000000000000 h
b0 B"
b0 2
b0 `
b0 H"
b10000000000000000000000000000001 o
b10000000000000000000000000000001 :
b10000000000000000000000000000001 x
1s
1P
b100001 k
b100001 6
b100001 v
b110100000000110000000000000000 0#
b110100000000110000000000000000 $
b110100000000110000000000000000 R
b110100000000110000000000000000 [
b0 m
b11 t
b11 <
b11 z
b1 q
b1 N
b1 d"
b10 n
b10 K
b10 c"
1p
1M
1u
1=
b100 l
b100 7
b100 w
b11 A"
b11 1
b11 _
b11 G"
b0 ="
b10000000000000000000000000000001 V"
b10000000000000000000000000000001 E
b10000000000000000000000000000001 e
b10000000000000000000000000000001 \"
b0 3"
0,"
b0 f
b100001 a
b10000010001100000100001 c
b11111111111111111111111111111111 0"
b100000 Z
b100000 J
b100000 \
b100000 %
b100000 Q
b100000 /#
b10000010001100000100001 ]
b10000010001100000100001 8
b10000010001100000100001 b
b11100 ^
b11100 9
b11100 g
b11 !"
b11 0
b11 7"
b0 ~
b0 /
b0 2"
b0 }
b0 4"
b0 .
b0 /"
b10000000000000000000000000000001 L"
b10000000000000000000000000000001 D
b10000000000000000000000000000001 R"
b10000000000000000000000000000000 `"
b10000000000000000000000000000000 S
b10000000000000000000000000000000 (#
b1000000000000000 q"
1!
1#
#380000
0!
0#
#390000
b0 o
b0 :
b0 x
b10001 B"
b10001 2
b10001 `
b10001 H"
b0 *#
b0 O
b0 i
b0 r
b0 ;
b0 y
b0 m
b100101 k
b100101 6
b100101 v
b0 )#
b0 L
b0 h
b11 U"
b11 C
b11 d
b11 ["
b0 V"
b0 E
b0 e
b0 \"
b10001 :"
b11 q
b11 N
b11 d"
0s
0P
b0 n
b0 K
b0 c"
1p
1M
b11 t
b11 <
b11 z
1u
1=
b1 l
b1 7
b1 w
b10000010001100000100000 0#
b10000010001100000100000 $
b10000010001100000100000 R
b10000010001100000100000 [
1."
b10000000000000000000000000010000 3"
1*"
11"
b1111111111111111111111111111110 0"
b1101 f
b0 a
b110000000000000000 c
b10000000000000000000000000000000 q"
b10000000000000000000000000000001 `"
b10000000000000000000000000000001 S
b10000000000000000000000000000001 (#
b11 K"
b11 B
b11 Q"
b0 L"
b0 D
b0 R"
b10000000000000000000000000010000 ~
b10000000000000000000000000010000 /
b10000000000000000000000000010000 2"
b10000000000000000000000000000001 }
b10001 4"
b10000000000000000000000000000001 .
b10000000000000000000000000000001 /"
b100 |
b100 +
b100 $"
b100001 {
b100001 *
b100001 #"
b110100000000110000000000000000 ]
b110100000000110000000000000000 8
b110100000000110000000000000000 b
b100000 ^
b100000 9
b100000 g
b100100 Z
b100100 J
b100100 \
b100100 %
b100100 Q
b100100 /#
1!
1#
#400000
0!
0#
#410000
b10000000000000000000000000010000 r
b10000000000000000000000000010000 ;
b10000000000000000000000000010000 y
b10000000000000000000000000000001 o
b10000000000000000000000000000001 :
b10000000000000000000000000000001 x
b10000000000000000000000000010000 *#
b10000000000000000000000000010000 O
b10000000000000000000000000010000 i
b10000000000000000000000000000001 )#
b10000000000000000000000000000001 L
b10000000000000000000000000000001 h
1s
1P
b100000 k
b100000 6
b100000 v
b1000110001100000100010 0#
b1000110001100000100010 $
b1000110001100000100010 R
b1000110001100000100010 [
b0 m
b11 t
b11 <
b11 z
b1 q
b1 N
b1 d"
b10 n
b10 K
b10 c"
1p
1M
1u
1=
b100 l
b100 7
b100 w
b0 B"
b0 2
b0 `
b0 H"
b0 :"
b10001 V"
b10001 E
b10001 e
b10001 \"
0."
b0 3"
0*"
b0 f
b100000 a
b10000010001100000100000 c
01"
b11111111111111111111111111111111 0"
b101000 Z
b101000 J
b101000 \
b101000 %
b101000 Q
b101000 /#
b10000010001100000100000 ]
b10000010001100000100000 8
b10000010001100000100000 b
b100100 ^
b100100 9
b100100 g
b0 ~
b0 /
b0 2"
b0 }
b0 4"
b0 .
b0 /"
b1 |
b1 +
b1 $"
b100101 {
b100101 *
b100101 #"
b10001 L"
b10001 D
b10001 R"
b11 _"
b11 V
b11 '#
b0 `"
b0 S
b0 (#
b10000000000000000000000000000001 q"
1!
1#
#420000
0!
0#
#430000
b10000000000000000000000000010000 o
b10000000000000000000000000010000 :
b10000000000000000000000000010000 x
b10001 B"
b10001 2
b10001 `
b10001 H"
b10001 *#
b10001 O
b10001 i
b0 r
b0 ;
b0 y
b10000000000000000000000000010000 )#
b10000000000000000000000000010000 L
b10000000000000000000000000010000 h
0D"
05
b100010 k
b100010 6
b100010 v
b0 V"
b0 E
b0 e
b0 \"
b10001 :"
b11 q
b11 N
b11 d"
1s
1P
b1 n
b1 K
b1 c"
1p
1M
1u
1=
b100 l
b100 7
b100 w
b11000100001100000100011 0#
b11000100001100000100011 $
b11000100001100000100011 R
b11000100001100000100011 [
1."
b10000000000000000000000000010000 3"
1*"
11"
b1111111111111111111111111111110 0"
b100010 a
b1000110001100000100010 c
b0 |"
b10001 `"
b10001 S
b10001 (#
b0 L"
b0 D
b0 R"
b10000000000000000000000000010000 ~
b10000000000000000000000000010000 /
b10000000000000000000000000010000 2"
b10000000000000000000000000000001 }
b10001 4"
b10000000000000000000000000000001 .
b10000000000000000000000000000001 /"
b100 |
b100 +
b100 $"
b100000 {
b100000 *
b100000 #"
b1000110001100000100010 ]
b1000110001100000100010 8
b1000110001100000100010 b
b101000 ^
b101000 9
b101000 g
b101100 Z
b101100 J
b101100 \
b101100 %
b101100 Q
b101100 /#
1!
1#
#440000
0!
0#
