wave.vcd
$date
	Fri Aug 23 21:06:08 2019
$end
$version
	Icarus Verilog
$end
$timescale
	1ps
$end
$scope module openmips_min_sopc_tb $end
$var reg 1 ! CLOCK_50 $end
$var reg 1 " rst $end
$scope module openmips_min_sopc0 $end
$var wire 1 # clk $end
$var wire 32 $ inst [31:0] $end
$var wire 32 % inst_addr [31:0] $end
$var wire 1 & rom_ce $end
$var wire 1 ' rst $end
$scope module openmips0 $end
$var wire 1 # clk $end
$var wire 8 ( ex_aluop_i [7:0] $end
$var wire 32 ) ex_reg1_i [31:0] $end
$var wire 32 * ex_reg2_i [31:0] $end
$var wire 5 + ex_wd_i [4:0] $end
$var wire 5 , ex_wd_o [4:0] $end
$var wire 32 - ex_wdata_o [31:0] $end
$var wire 1 . ex_wreg_i $end
$var wire 1 / ex_wreg_o $end
$var wire 8 0 id_aluop_o [7:0] $end
$var wire 32 1 id_inst_i [31:0] $end
$var wire 32 2 id_pc_i [31:0] $end
$var wire 32 3 id_reg1_o [31:0] $end
$var wire 32 4 id_reg2_o [31:0] $end
$var wire 5 5 id_wd_o [4:0] $end
$var wire 1 6 id_wreg_o $end
$var wire 5 7 mem_wd_i [4:0] $end
$var wire 5 8 mem_wd_o [4:0] $end
$var wire 32 9 mem_wdata_i [31:0] $end
$var wire 32 : mem_wdata_o [31:0] $end
$var wire 1 ; mem_wreg_i $end
$var wire 1 < mem_wreg_o $end
$var wire 32 = pc [31:0] $end
$var wire 5 > reg1_addr [4:0] $end
$var wire 32 ? reg1_data [31:0] $end
$var wire 1 @ reg1_read $end
$var wire 5 A reg2_addr [4:0] $end
$var wire 32 B reg2_data [31:0] $end
$var wire 1 C reg2_read $end
$var wire 32 D rom_addr_o [31:0] $end
$var wire 1 & rom_ce_o $end
$var wire 32 E rom_data_i [31:0] $end
$var wire 1 ' rst $end
$var wire 32 F wb_data_i [31:0] $end
$var wire 5 G wb_wd_i [4:0] $end
$var wire 1 H wb_wreg_o $end
$scope module pc_reg0 $end
$var wire 1 # clk $end
$var wire 1 ' rst $end
$var reg 1 I ce $end
$var reg 32 J pc [31:0] $end
$upscope $end
$scope module if_id0 $end
$var wire 1 # clk $end
$var wire 32 K if_inst [31:0] $end
$var wire 32 L if_pc [31:0] $end
$var wire 1 ' rst $end
$var reg 32 M id_inst [31:0] $end
$var reg 32 N id_pc [31:0] $end
$upscope $end
$scope module id_0 $end
$var wire 5 O ex_wd_i [4:0] $end
$var wire 32 P ex_wdata_i [31:0] $end
$var wire 1 / ex_wreg_i $end
$var wire 32 Q inst_i [31:0] $end
$var wire 5 R mem_wd_i [4:0] $end
$var wire 32 S mem_wdata_i [31:0] $end
$var wire 1 < mem_wreg_i $end
$var wire 6 T opcode [5:0] $end
$var wire 32 U pc_i [31:0] $end
$var wire 32 V reg1_data_i [31:0] $end
$var wire 32 W reg2_data_i [31:0] $end
$var wire 1 ' rst $end
$var reg 8 X aluop_o [7:0] $end
$var reg 33 Y imm [32:0] $end
$var reg 5 Z reg1_addr_o [4:0] $end
$var reg 32 [ reg1_o [31:0] $end
$var reg 1 \ reg1_read_o $end
$var reg 5 ] reg2_addr_o [4:0] $end
$var reg 32 ^ reg2_o [31:0] $end
$var reg 1 _ reg2_read_o $end
$var reg 5 ` wd_o [4:0] $end
$var reg 1 a wreg_o $end
$upscope $end
$scope module id_ex0 $end
$var wire 1 # clk $end
$var wire 8 b id_aluop [7:0] $end
$var wire 32 c id_reg1 [31:0] $end
$var wire 32 d id_reg2 [31:0] $end
$var wire 5 e id_wd [4:0] $end
$var wire 1 6 id_wreg $end
$var wire 1 ' rst $end
$var reg 8 f ex_aluop [7:0] $end
$var reg 32 g ex_reg1 [31:0] $end
$var reg 32 h ex_reg2 [31:0] $end
$var reg 5 i ex_wd [4:0] $end
$var reg 1 j ex_wreg $end
$upscope $end
$scope module ex_0 $end
$var wire 8 k aluop_i [7:0] $end
$var wire 32 l reg1_i [31:0] $end
$var wire 32 m reg2_i [31:0] $end
$var wire 1 ' rst $end
$var wire 5 n wd_i [4:0] $end
$var wire 1 . wreg_i $end
$var reg 5 o wd_o [4:0] $end
$var reg 32 p wdata_o [31:0] $end
$var reg 1 q wreg_o $end
$upscope $end
$scope module ex_mem0 $end
$var wire 1 # clk $end
$var wire 5 r ex_wd [4:0] $end
$var wire 32 s ex_wdata [31:0] $end
$var wire 1 / ex_wreg $end
$var wire 1 ' rst $end
$var reg 5 t mem_wd [4:0] $end
$var reg 32 u mem_wdata [31:0] $end
$var reg 1 v mem_wreg $end
$upscope $end
$scope module mem0 $end
$var wire 1 ' rst $end
$var wire 5 w wd_i [4:0] $end
$var wire 32 x wdata_i [31:0] $end
$var wire 1 ; wreg_i $end
$var reg 5 y wd_o [4:0] $end
$var reg 32 z wdata_o [31:0] $end
$var reg 1 { wreg_o $end
$upscope $end
$scope module mem_wb0 $end
$var wire 1 # clk $end
$var wire 5 | mem_wd [4:0] $end
$var wire 32 } mem_wdata [31:0] $end
$var wire 1 < mem_wreg $end
$var wire 1 ' rst $end
$var reg 5 ~ wb_wd [4:0] $end
$var reg 32 !" wb_wdata [31:0] $end
$var reg 1 "" wb_wreg $end
$upscope $end
$scope module regfile0 $end
$var wire 1 # clk $end
$var wire 5 #" raddr1 [4:0] $end
$var wire 5 $" raddr2 [4:0] $end
$var wire 1 @ re1 $end
$var wire 1 C re2 $end
$var wire 1 ' rst $end
$var wire 5 %" waddr [4:0] $end
$var wire 32 &" wdata [31:0] $end
$var wire 1 H we $end
$var reg 32 '" rdata1 [31:0] $end
$var reg 32 (" rdata2 [31:0] $end
$upscope $end
$upscope $end
$scope module inst_rom0 $end
$var wire 32 )" addr [31:0] $end
$var wire 1 & ce $end
$var reg 32 *" inst [31:0] $end
$upscope $end
$upscope $end
$upscope $end
$enddefinitions $end
#0
$dumpvars
bx *"
bx )"
b0 ("
b0 '"
bx &"
bx %"
b0 $"
b0 #"
x""
bx !"
bx ~
b0 }
b0 |
0{
b0 z
b0 y
bx x
bx w
xv
bx u
bx t
b0 s
b0 r
0q
b0 p
b0 o
bx n
bx m
bx l
bx k
xj
bx i
bx h
bx g
bx f
b0 e
b0 d
b0 c
b0 b
0a
b0 `
0_
b0 ^
b0 ]
0\
b0 [
b0 Z
bx Y
b0 X
b0 W
b0 V
bx U
bx T
b0 S
b0 R
bx Q
b0 P
b0 O
bx N
bx M
bx L
bx K
bx J
xI
xH
bx G
bx F
bx E
bx D
0C
b0 B
b0 A
0@
b0 ?
b0 >
bx =
0<
x;
b0 :
bx 9
b0 8
bx 7
06
b0 5
b0 4
b0 3
bx 2
bx 1
b0 0
0/
x.
b0 -
b0 ,
bx +
bx *
bx )
bx (
1'
x&
bx %
bx $
0#
1"
0!
$end
#10000
b0 *"
b0 $
b0 E
b0 K
b0 T
0I
0&
b0 J
b0 =
b0 L
b0 %
b0 D
b0 )"
b0 M
b0 1
b0 Q
b0 N
b0 2
b0 U
0j
0.
b0 i
b0 +
b0 n
b0 h
b0 *
b0 m
b0 g
b0 )
b0 l
b0 f
b0 (
b0 k
0v
0;
b0 t
b0 7
b0 w
b0 u
b0 9
b0 x
0""
0H
b0 ~
b0 G
b0 %"
b0 !"
b0 F
b0 &"
1!
1#
#20000
0!
0#
#30000
1!
1#
#40000
0!
0#
#50000
1!
1#
#60000
0!
0#
#70000
1!
1#
#80000
0!
0#
#90000
1!
1#
#100000
0!
0#
#110000
1!
1#
#120000
0!
0#
#130000
1!
1#
#140000
0!
0#
#150000
1!
1#
#160000
0!
0#
#170000
1!
1#
#180000
0!
0#
#190000
1!
1#
#195000
bx ^
bx 4
bx d
0"
0'
#200000
0!
0#
#210000
b110100000000010001000100000000 *"
b110100000000010001000100000000 $
b110100000000010001000100000000 E
b110100000000010001000100000000 K
1I
1&
bx h
bx *
bx m
1!
1#
#220000
0!
0#
#230000
b1000100000000 ^
b1000100000000 4
b1000100000000 d
b1000100000000 Y
1\
1@
1a
16
b100101 X
b100101 0
b100101 b
b1 ]
b1 A
b1 $"
b1 `
b1 5
b1 e
b110100001000010000000000100000 *"
b110100001000010000000000100000 $
b110100001000010000000000100000 E
b110100001000010000000000100000 K
b1101 T
b110100000000010001000100000000 M
b110100000000010001000100000000 1
b110100000000010001000100000000 Q
b100 J
b100 =
b100 L
b100 %
b100 D
b100 )"
1!
1#
#240000
0!
0#
#250000
bx '"
bx ?
bx V
b1000100000000 [
b1000100000000 3
b1000100000000 c
b100000 ^
b100000 4
b100000 d
b110100001000010100010000000000 *"
b110100001000010100010000000000 $
b110100001000010100010000000000 E
b110100001000010100010000000000 K
b100000 Y
b1 Z
b1 >
b1 #"
1\
1@
b1 `
b1 5
b1 e
1a
16
b1000100000000 p
b1000100000000 -
b1000100000000 P
b1000100000000 s
1q
1/
b1 o
b1 ,
b1 O
b1 r
b1000 J
b1000 =
b1000 L
b1000 %
b1000 D
b1000 )"
b110100001000010000000000100000 M
b110100001000010000000000100000 1
b110100001000010000000000100000 Q
b100 N
b100 2
b100 U
1j
1.
b1 i
b1 +
b1 n
b1000100000000 h
b1000100000000 *
b1000100000000 m
b100101 f
b100101 (
b100101 k
1!
1#
#260000
0!
0#
#270000
b100010000000000 ^
b100010000000000 4
b100010000000000 d
b1000100100000 [
b1000100100000 3
b1000100100000 c
1{
1<
b1 y
b1 8
b1 R
b1 |
b1000100000000 z
b1000100000000 :
b1000100000000 S
b1000100000000 }
b1000100100000 p
b1000100100000 -
b1000100100000 P
b1000100100000 s
b100010000000000 Y
1\
1@
b1 `
b1 5
b1 e
1a
16
b110100001000010000000001000100 *"
b110100001000010000000001000100 $
b110100001000010000000001000100 E
b110100001000010000000001000100 K
1v
1;
b1 t
b1 7
b1 w
b1000100000000 u
b1000100000000 9
b1000100000000 x
b100000 h
b100000 *
b100000 m
b1000100000000 g
b1000100000000 )
b1000100000000 l
b110100001000010100010000000000 M
b110100001000010100010000000000 1
b110100001000010100010000000000 Q
b1000 N
b1000 2
b1000 U
b1100 J
b1100 =
b1100 L
b1100 %
b1100 D
b1100 )"
1!
1#
#280000
0!
0#
#290000
b1000100 ^
b1000100 4
b1000100 d
b101010100100000 [
b101010100100000 3
b101010100100000 c
bx *"
bx $
bx E
bx K
b1000100 Y
1\
1@
b1 `
b1 5
b1 e
1a
16
b101010100100000 p
b101010100100000 -
b101010100100000 P
b101010100100000 s
b1000100100000 z
b1000100100000 :
b1000100100000 S
b1000100100000 }
b1000100000000 '"
b1000100000000 ?
b1000100000000 V
b10000 J
b10000 =
b10000 L
b10000 %
b10000 D
b10000 )"
b110100001000010000000001000100 M
b110100001000010000000001000100 1
b110100001000010000000001000100 Q
b1100 N
b1100 2
b1100 U
b100010000000000 h
b100010000000000 *
b100010000000000 m
b1000100100000 g
b1000100100000 )
b1000100100000 l
b1000100100000 u
b1000100100000 9
b1000100100000 x
1""
1H
b1 ~
b1 G
b1 %"
b1000100000000 !"
b1000100000000 F
b1000100000000 &"
1!
1#
#300000
0!
0#
#310000
b0xxxxxxxxxxxxxxxx ^
b0xxxxxxxxxxxxxxxx 4
b0xxxxxxxxxxxxxxxx d
b0 [
b0 3
b0 c
b0 '"
b0 ?
b0 V
b101010100100000 z
b101010100100000 :
b101010100100000 S
b101010100100000 }
b101010101100100 p
b101010101100100 -
b101010101100100 P
b101010101100100 s
b0xxxxxxxxxxxxxxxx Y
bx ]
bx A
bx $"
bx Z
bx >
bx #"
0\
0@
bx `
bx 5
bx e
0a
06
bx T
b1000100100000 !"
b1000100100000 F
b1000100100000 &"
b101010100100000 u
b101010100100000 9
b101010100100000 x
b1000100 h
b1000100 *
b1000100 m
b101010100100000 g
b101010100100000 )
b101010100100000 l
bx M
bx 1
bx Q
b10000 N
b10000 2
b10000 U
b10100 J
b10100 =
b10100 L
b10100 %
b10100 D
b10100 )"
1!
1#
#320000
0!
0#
#330000
b0xxxxxxxxxxxxxxxx p
b0xxxxxxxxxxxxxxxx -
b0xxxxxxxxxxxxxxxx P
b0xxxxxxxxxxxxxxxx s
0q
0/
bx o
bx ,
bx O
bx r
b101010101100100 z
b101010101100100 :
b101010101100100 S
b101010101100100 }
b11000 J
b11000 =
b11000 L
b11000 %
b11000 D
b11000 )"
b10100 N
b10100 2
b10100 U
0j
0.
bx i
bx +
bx n
b0xxxxxxxxxxxxxxxx h
b0xxxxxxxxxxxxxxxx *
b0xxxxxxxxxxxxxxxx m
b0 g
b0 )
b0 l
b101010101100100 u
b101010101100100 9
b101010101100100 x
b101010100100000 !"
b101010100100000 F
b101010100100000 &"
1!
1#
#340000
0!
0#
#350000
0{
0<
bx y
bx 8
bx R
bx |
b0xxxxxxxxxxxxxxxx z
b0xxxxxxxxxxxxxxxx :
b0xxxxxxxxxxxxxxxx S
b0xxxxxxxxxxxxxxxx }
b101010101100100 !"
b101010101100100 F
b101010101100100 &"
0v
0;
bx t
bx 7
bx w
b0xxxxxxxxxxxxxxxx u
b0xxxxxxxxxxxxxxxx 9
b0xxxxxxxxxxxxxxxx x
b11000 N
b11000 2
b11000 U
b11100 J
b11100 =
b11100 L
b11100 %
b11100 D
b11100 )"
1!
1#
#360000
0!
0#
#370000
b100000 J
b100000 =
b100000 L
b100000 %
b100000 D
b100000 )"
b11100 N
b11100 2
b11100 U
0""
0H
bx ~
bx G
bx %"
b0xxxxxxxxxxxxxxxx !"
b0xxxxxxxxxxxxxxxx F
b0xxxxxxxxxxxxxxxx &"
1!
1#
#380000
0!
0#
#390000
b100000 N
b100000 2
b100000 U
b100100 J
b100100 =
b100100 L
b100100 %
b100100 D
b100100 )"
1!
1#
#400000
0!
0#
#410000
b101000 J
b101000 =
b101000 L
b101000 %
b101000 D
b101000 )"
b100100 N
b100100 2
b100100 U
1!
1#
#420000
0!
0#
#430000
b101000 N
b101000 2
b101000 U
b101100 J
b101100 =
b101100 L
b101100 %
b101100 D
b101100 )"
1!
1#
#440000
0!
0#
#450000
b110000 J
b110000 =
b110000 L
b110000 %
b110000 D
b110000 )"
b101100 N
b101100 2
b101100 U
1!
1#
#460000
0!
0#
#470000
b110000 N
b110000 2
b110000 U
b110100 J
b110100 =
b110100 L
b110100 %
b110100 D
b110100 )"
1!
1#
#480000
0!
0#
#490000
b111000 J
b111000 =
b111000 L
b111000 %
b111000 D
b111000 )"
b110100 N
b110100 2
b110100 U
1!
1#
#500000
0!
0#
#510000
b111000 N
b111000 2
b111000 U
b111100 J
b111100 =
b111100 L
b111100 %
b111100 D
b111100 )"
1!
1#
#520000
0!
0#
#530000
b1000000 J
b1000000 =
b1000000 L
b1000000 %
b1000000 D
b1000000 )"
b111100 N
b111100 2
b111100 U
1!
1#
#540000
0!
0#
#550000
b1000000 N
b1000000 2
b1000000 U
b1000100 J
b1000100 =
b1000100 L
b1000100 %
b1000100 D
b1000100 )"
1!
1#
#560000
0!
0#
#570000
b1001000 J
b1001000 =
b1001000 L
b1001000 %
b1001000 D
b1001000 )"
b1000100 N
b1000100 2
b1000100 U
1!
1#
#580000
0!
0#
#590000
b1001000 N
b1001000 2
b1001000 U
b1001100 J
b1001100 =
b1001100 L
b1001100 %
b1001100 D
b1001100 )"
1!
1#
#600000
0!
0#
#610000
b1010000 J
b1010000 =
b1010000 L
b1010000 %
b1010000 D
b1010000 )"
b1001100 N
b1001100 2
b1001100 U
1!
1#
#620000
0!
0#
#630000
b1010000 N
b1010000 2
b1010000 U
b1010100 J
b1010100 =
b1010100 L
b1010100 %
b1010100 D
b1010100 )"
1!
1#
#640000
0!
0#
#650000
b1011000 J
b1011000 =
b1011000 L
b1011000 %
b1011000 D
b1011000 )"
b1010100 N
b1010100 2
b1010100 U
1!
1#
#660000
0!
0#
#670000
b1011000 N
b1011000 2
b1011000 U
b1011100 J
b1011100 =
b1011100 L
b1011100 %
b1011100 D
b1011100 )"
1!
1#
#680000
0!
0#
#690000
b1100000 J
b1100000 =
b1100000 L
b1100000 %
b1100000 D
b1100000 )"
b1011100 N
b1011100 2
b1011100 U
1!
1#
#700000
0!
0#
#710000
b1100000 N
b1100000 2
b1100000 U
b1100100 J
b1100100 =
b1100100 L
b1100100 %
b1100100 D
b1100100 )"
1!
1#
#720000
0!
0#
#730000
b1101000 J
b1101000 =
b1101000 L
b1101000 %
b1101000 D
b1101000 )"
b1100100 N
b1100100 2
b1100100 U
1!
1#
#740000
0!
0#
#750000
b1101000 N
b1101000 2
b1101000 U
b1101100 J
b1101100 =
b1101100 L
b1101100 %
b1101100 D
b1101100 )"
1!
1#
#760000
0!
0#
#770000
b1110000 J
b1110000 =
b1110000 L
b1110000 %
b1110000 D
b1110000 )"
b1101100 N
b1101100 2
b1101100 U
1!
1#
#780000
0!
0#
#790000
b1110000 N
b1110000 2
b1110000 U
b1110100 J
b1110100 =
b1110100 L
b1110100 %
b1110100 D
b1110100 )"
1!
1#
#800000
0!
0#
#810000
b1111000 J
b1111000 =
b1111000 L
b1111000 %
b1111000 D
b1111000 )"
b1110100 N
b1110100 2
b1110100 U
1!
1#
#820000
0!
0#
#830000
b1111000 N
b1111000 2
b1111000 U
b1111100 J
b1111100 =
b1111100 L
b1111100 %
b1111100 D
b1111100 )"
1!
1#
#840000
0!
0#
#850000
b10000000 J
b10000000 =
b10000000 L
b10000000 %
b10000000 D
b10000000 )"
b1111100 N
b1111100 2
b1111100 U
1!
1#
#860000
0!
0#
#870000
b10000000 N
b10000000 2
b10000000 U
b10000100 J
b10000100 =
b10000100 L
b10000100 %
b10000100 D
b10000100 )"
1!
1#
#880000
0!
0#
#890000
b10001000 J
b10001000 =
b10001000 L
b10001000 %
b10001000 D
b10001000 )"
b10000100 N
b10000100 2
b10000100 U
1!
1#
#900000
0!
0#
#910000
b10001000 N
b10001000 2
b10001000 U
b10001100 J
b10001100 =
b10001100 L
b10001100 %
b10001100 D
b10001100 )"
1!
1#
#920000
0!
0#
#930000
b10010000 J
b10010000 =
b10010000 L
b10010000 %
b10010000 D
b10010000 )"
b10001100 N
b10001100 2
b10001100 U
1!
1#
#940000
0!
0#
#950000
b10010000 N
b10010000 2
b10010000 U
b10010100 J
b10010100 =
b10010100 L
b10010100 %
b10010100 D
b10010100 )"
1!
1#
#960000
0!
0#
#970000
b10011000 J
b10011000 =
b10011000 L
b10011000 %
b10011000 D
b10011000 )"
b10010100 N
b10010100 2
b10010100 U
1!
1#
#980000
0!
0#
#990000
b10011000 N
b10011000 2
b10011000 U
b10011100 J
b10011100 =
b10011100 L
b10011100 %
b10011100 D
b10011100 )"
1!
1#
#1000000
0!
0#
#1010000
b10100000 J
b10100000 =
b10100000 L
b10100000 %
b10100000 D
b10100000 )"
b10011100 N
b10011100 2
b10011100 U
1!
1#
#1020000
0!
0#
#1030000
b10100000 N
b10100000 2
b10100000 U
b10100100 J
b10100100 =
b10100100 L
b10100100 %
b10100100 D
b10100100 )"
1!
1#
#1040000
0!
0#
#1050000
b10101000 J
b10101000 =
b10101000 L
b10101000 %
b10101000 D
b10101000 )"
b10100100 N
b10100100 2
b10100100 U
1!
1#
#1060000
0!
0#
#1070000
b10101000 N
b10101000 2
b10101000 U
b10101100 J
b10101100 =
b10101100 L
b10101100 %
b10101100 D
b10101100 )"
1!
1#
#1080000
0!
0#
#1090000
b10110000 J
b10110000 =
b10110000 L
b10110000 %
b10110000 D
b10110000 )"
b10101100 N
b10101100 2
b10101100 U
1!
1#
#1100000
0!
0#
#1110000
b10110000 N
b10110000 2
b10110000 U
b10110100 J
b10110100 =
b10110100 L
b10110100 %
b10110100 D
b10110100 )"
1!
1#
#1120000
0!
0#
#1130000
b10111000 J
b10111000 =
b10111000 L
b10111000 %
b10111000 D
b10111000 )"
b10110100 N
b10110100 2
b10110100 U
1!
1#
#1140000
0!
0#
#1150000
b10111000 N
b10111000 2
b10111000 U
b10111100 J
b10111100 =
b10111100 L
b10111100 %
b10111100 D
b10111100 )"
1!
1#
#1160000
0!
0#
#1170000
b11000000 J
b11000000 =
b11000000 L
b11000000 %
b11000000 D
b11000000 )"
b10111100 N
b10111100 2
b10111100 U
1!
1#
#1180000
0!
0#
#1190000
b11000000 N
b11000000 2
b11000000 U
b11000100 J
b11000100 =
b11000100 L
b11000100 %
b11000100 D
b11000100 )"
1!
1#
