wave.vcd
$date
	Fri Nov 29 13:42:40 2019
$end
$version
	Icarus Verilog
$end
$timescale
	1ps
$end
$scope module openmips_min_sopc_tb $end
$var reg 1 ! CLOCK_50 $end
$var reg 1 " rst $end
$scope module openmips_min_sopc0 $end
$var wire 1 # clk $end
$var wire 32 $ inst [31:0] $end
$var wire 32 % inst_addr [31:0] $end
$var wire 1 & rom_ce $end
$var wire 1 ' rst $end
$scope module openmips0 $end
$var wire 32 ( HI [31:0] $end
$var wire 32 ) LO [31:0] $end
$var wire 1 # clk $end
$var wire 8 * ex_aluop_i [7:0] $end
$var wire 3 + ex_alusel_i [2:0] $end
$var wire 32 , ex_hi_o [31:0] $end
$var wire 32 - ex_lo_o [31:0] $end
$var wire 32 . ex_reg1_i [31:0] $end
$var wire 32 / ex_reg2_i [31:0] $end
$var wire 5 0 ex_wd_i [4:0] $end
$var wire 5 1 ex_wd_o [4:0] $end
$var wire 32 2 ex_wdata_o [31:0] $end
$var wire 1 3 ex_whilo_o $end
$var wire 1 4 ex_wreg_i $end
$var wire 1 5 ex_wreg_o $end
$var wire 8 6 id_aluop_o [7:0] $end
$var wire 3 7 id_alusel_o [2:0] $end
$var wire 32 8 id_inst_i [31:0] $end
$var wire 32 9 id_pc_i [31:0] $end
$var wire 32 : id_reg1_o [31:0] $end
$var wire 32 ; id_reg2_o [31:0] $end
$var wire 5 < id_wd_o [4:0] $end
$var wire 1 = id_wreg_o $end
$var wire 32 > mem_hi_i [31:0] $end
$var wire 32 ? mem_hi_o [31:0] $end
$var wire 32 @ mem_lo_i [31:0] $end
$var wire 32 A mem_lo_o [31:0] $end
$var wire 5 B mem_wd_i [4:0] $end
$var wire 5 C mem_wd_o [4:0] $end
$var wire 32 D mem_wdata_i [31:0] $end
$var wire 32 E mem_wdata_o [31:0] $end
$var wire 1 F mem_whilo_i $end
$var wire 1 G mem_whilo_o $end
$var wire 1 H mem_wreg_i $end
$var wire 1 I mem_wreg_o $end
$var wire 32 J pc [31:0] $end
$var wire 5 K reg1_addr [4:0] $end
$var wire 32 L reg1_data [31:0] $end
$var wire 1 M reg1_read $end
$var wire 5 N reg2_addr [4:0] $end
$var wire 32 O reg2_data [31:0] $end
$var wire 1 P reg2_read $end
$var wire 32 Q rom_addr_o [31:0] $end
$var wire 1 & rom_ce_o $end
$var wire 32 R rom_data_i [31:0] $end
$var wire 1 ' rst $end
$var wire 32 S wb_data_i [31:0] $end
$var wire 32 T wb_hi_i [31:0] $end
$var wire 32 U wb_lo_i [31:0] $end
$var wire 5 V wb_wd_i [4:0] $end
$var wire 1 W wb_whilo_i $end
$var wire 1 X wb_wreg_o $end
$scope module pc_reg0 $end
$var wire 1 # clk $end
$var wire 1 ' rst $end
$var reg 1 Y ce $end
$var reg 32 Z pc [31:0] $end
$upscope $end
$scope module if_id0 $end
$var wire 1 # clk $end
$var wire 32 [ if_inst [31:0] $end
$var wire 32 \ if_pc [31:0] $end
$var wire 1 ' rst $end
$var reg 32 ] id_inst [31:0] $end
$var reg 32 ^ id_pc [31:0] $end
$upscope $end
$scope module id_0 $end
$var wire 5 _ ex_wd_i [4:0] $end
$var wire 32 ` ex_wdata_i [31:0] $end
$var wire 1 5 ex_wreg_i $end
$var wire 6 a funct [5:0] $end
$var wire 32 b inst_i [31:0] $end
$var wire 26 c jump_addr [25:0] $end
$var wire 5 d mem_wd_i [4:0] $end
$var wire 32 e mem_wdata_i [31:0] $end
$var wire 1 I mem_wreg_i $end
$var wire 6 f opcode [5:0] $end
$var wire 32 g pc_i [31:0] $end
$var wire 32 h reg1_data_i [31:0] $end
$var wire 32 i reg2_data_i [31:0] $end
$var wire 1 ' rst $end
$var wire 5 j shamt [4:0] $end
$var reg 8 k aluop_o [7:0] $end
$var reg 3 l alusel_o [2:0] $end
$var reg 33 m imm [32:0] $end
$var reg 5 n reg1_addr_o [4:0] $end
$var reg 32 o reg1_o [31:0] $end
$var reg 1 p reg1_read_o $end
$var reg 5 q reg2_addr_o [4:0] $end
$var reg 32 r reg2_o [31:0] $end
$var reg 1 s reg2_read_o $end
$var reg 5 t wd_o [4:0] $end
$var reg 1 u wreg_o $end
$upscope $end
$scope module id_ex0 $end
$var wire 1 # clk $end
$var wire 8 v id_aluop [7:0] $end
$var wire 3 w id_alusel [2:0] $end
$var wire 32 x id_reg1 [31:0] $end
$var wire 32 y id_reg2 [31:0] $end
$var wire 5 z id_wd [4:0] $end
$var wire 1 = id_wreg $end
$var wire 1 ' rst $end
$var reg 8 { ex_aluop [7:0] $end
$var reg 3 | ex_alusel [2:0] $end
$var reg 32 } ex_reg1 [31:0] $end
$var reg 32 ~ ex_reg2 [31:0] $end
$var reg 5 !" ex_wd [4:0] $end
$var reg 1 "" ex_wreg $end
$upscope $end
$scope module ex_0 $end
$var wire 8 #" aluop_i [7:0] $end
$var wire 3 $" alusel_i [2:0] $end
$var wire 32 %" hi_i [31:0] $end
$var wire 32 &" lo_i [31:0] $end
$var wire 32 '" mem_hi_i [31:0] $end
$var wire 32 (" mem_lo_i [31:0] $end
$var wire 1 G mem_whilo_i $end
$var wire 32 )" reg1_i [31:0] $end
$var wire 32 *" reg2_i [31:0] $end
$var wire 1 ' rst $end
$var wire 32 +" wb_hi_i [31:0] $end
$var wire 32 ," wb_lo_i [31:0] $end
$var wire 1 W wb_whilo_i $end
$var wire 5 -" wd_i [4:0] $end
$var wire 1 4 wreg_i $end
$var reg 32 ." HI [31:0] $end
$var reg 32 /" LO [31:0] $end
$var reg 32 0" hi_o [31:0] $end
$var reg 32 1" lo_o [31:0] $end
$var reg 32 2" logicout [31:0] $end
$var reg 32 3" moveres [31:0] $end
$var reg 32 4" shiftres [31:0] $end
$var reg 5 5" wd_o [4:0] $end
$var reg 32 6" wdata_o [31:0] $end
$var reg 1 7" whilo_o $end
$var reg 1 8" wreg_o $end
$upscope $end
$scope module ex_mem0 $end
$var wire 1 # clk $end
$var wire 32 9" ex_hi [31:0] $end
$var wire 32 :" ex_lo [31:0] $end
$var wire 5 ;" ex_wd [4:0] $end
$var wire 32 <" ex_wdata [31:0] $end
$var wire 1 3 ex_whilo $end
$var wire 1 5 ex_wreg $end
$var wire 1 ' rst $end
$var reg 32 =" mem_hi [31:0] $end
$var reg 32 >" mem_lo [31:0] $end
$var reg 5 ?" mem_wd [4:0] $end
$var reg 32 @" mem_wdata [31:0] $end
$var reg 1 A" mem_whilo $end
$var reg 1 B" mem_wreg $end
$upscope $end
$scope module mem0 $end
$var wire 32 C" hi_i [31:0] $end
$var wire 32 D" lo_i [31:0] $end
$var wire 1 ' rst $end
$var wire 5 E" wd_i [4:0] $end
$var wire 32 F" wdata_i [31:0] $end
$var wire 1 F whilo_i $end
$var wire 1 H wreg_i $end
$var reg 32 G" hi_o [31:0] $end
$var reg 32 H" lo_o [31:0] $end
$var reg 5 I" wd_o [4:0] $end
$var reg 32 J" wdata_o [31:0] $end
$var reg 1 K" whilo_o $end
$var reg 1 L" wreg_o $end
$upscope $end
$scope module mem_wb0 $end
$var wire 1 # clk $end
$var wire 32 M" mem_hi [31:0] $end
$var wire 32 N" mem_lo [31:0] $end
$var wire 5 O" mem_wd [4:0] $end
$var wire 32 P" mem_wdata [31:0] $end
$var wire 1 G mem_whilo $end
$var wire 1 I mem_wreg $end
$var wire 1 ' rst $end
$var reg 32 Q" wb_hi [31:0] $end
$var reg 32 R" wb_lo [31:0] $end
$var reg 5 S" wb_wd [4:0] $end
$var reg 32 T" wb_wdata [31:0] $end
$var reg 1 U" wb_whilo $end
$var reg 1 V" wb_wreg $end
$upscope $end
$scope module regfile0 $end
$var wire 1 # clk $end
$var wire 5 W" raddr1 [4:0] $end
$var wire 5 X" raddr2 [4:0] $end
$var wire 1 M re1 $end
$var wire 1 P re2 $end
$var wire 32 Y" regs_0 [31:0] $end
$var wire 32 Z" regs_1 [31:0] $end
$var wire 32 [" regs_10 [31:0] $end
$var wire 32 \" regs_11 [31:0] $end
$var wire 32 ]" regs_12 [31:0] $end
$var wire 32 ^" regs_13 [31:0] $end
$var wire 32 _" regs_14 [31:0] $end
$var wire 32 `" regs_15 [31:0] $end
$var wire 32 a" regs_16 [31:0] $end
$var wire 32 b" regs_17 [31:0] $end
$var wire 32 c" regs_18 [31:0] $end
$var wire 32 d" regs_19 [31:0] $end
$var wire 32 e" regs_2 [31:0] $end
$var wire 32 f" regs_20 [31:0] $end
$var wire 32 g" regs_21 [31:0] $end
$var wire 32 h" regs_22 [31:0] $end
$var wire 32 i" regs_23 [31:0] $end
$var wire 32 j" regs_24 [31:0] $end
$var wire 32 k" regs_25 [31:0] $end
$var wire 32 l" regs_26 [31:0] $end
$var wire 32 m" regs_27 [31:0] $end
$var wire 32 n" regs_28 [31:0] $end
$var wire 32 o" regs_29 [31:0] $end
$var wire 32 p" regs_3 [31:0] $end
$var wire 32 q" regs_30 [31:0] $end
$var wire 32 r" regs_31 [31:0] $end
$var wire 32 s" regs_4 [31:0] $end
$var wire 32 t" regs_5 [31:0] $end
$var wire 32 u" regs_6 [31:0] $end
$var wire 32 v" regs_7 [31:0] $end
$var wire 32 w" regs_8 [31:0] $end
$var wire 32 x" regs_9 [31:0] $end
$var wire 1 ' rst $end
$var wire 5 y" waddr [4:0] $end
$var wire 32 z" wdata [31:0] $end
$var wire 1 X we $end
$var reg 32 {" rdata1 [31:0] $end
$var reg 32 |" rdata2 [31:0] $end
$upscope $end
$scope module hilo_reg0 $end
$var wire 1 # clk $end
$var wire 32 }" hi_i [31:0] $end
$var wire 32 ~" lo_i [31:0] $end
$var wire 1 ' rst $end
$var wire 1 W we $end
$var reg 32 !# hi_o [31:0] $end
$var reg 32 "# lo_o [31:0] $end
$upscope $end
$upscope $end
$scope module inst_rom0 $end
$var wire 32 ## addr [31:0] $end
$var wire 1 & ce $end
$var reg 32 $# inst [31:0] $end
$upscope $end
$upscope $end
$upscope $end
$enddefinitions $end
#0
$dumpvars
bx $#
bx ##
bx "#
bx !#
bx ~"
bx }"
b0 |"
b0 {"
bx z"
bx y"
bz x"
bz w"
bz v"
bz u"
bz t"
bz s"
bz r"
bz q"
bz p"
bz o"
bz n"
bz m"
bz l"
bz k"
bz j"
bz i"
bz h"
bz g"
bz f"
bz e"
bz d"
bz c"
bz b"
bz a"
bz `"
bz _"
bz ^"
bz ]"
bz \"
bz ["
bz Z"
b0 Y"
b0 X"
b0 W"
xV"
xU"
bx T"
bx S"
bx R"
bx Q"
b0 P"
b0 O"
b0 N"
b0 M"
0L"
0K"
b0 J"
b0 I"
b0 H"
b0 G"
bx F"
bx E"
bx D"
bx C"
xB"
xA"
bx @"
bx ?"
bx >"
bx ="
b0 <"
b0 ;"
b0 :"
b0 9"
08"
07"
b0 6"
b0 5"
bx 4"
bx 3"
bx 2"
b0 1"
b0 0"
b0 /"
b0 ."
bx -"
bx ,"
bx +"
bx *"
bx )"
b0 ("
b0 '"
bx &"
bx %"
bx $"
bx #"
x""
bx !"
bx ~
bx }
bx |
bx {
b0 z
b0 y
b0 x
b0 w
b0 v
0u
b0 t
0s
b0 r
b0 q
0p
b0 o
b0 n
b0 m
b0 l
b0 k
bx j
b0 i
b0 h
bx g
bx f
b0 e
b0 d
bx c
bx b
bx a
b0 `
b0 _
bx ^
bx ]
bx \
bx [
bx Z
xY
xX
xW
bx V
bx U
bx T
bx S
bx R
bx Q
0P
b0 O
b0 N
0M
b0 L
b0 K
bx J
0I
xH
0G
xF
b0 E
bx D
b0 C
bx B
b0 A
bx @
b0 ?
bx >
0=
b0 <
b0 ;
b0 :
bx 9
bx 8
b0 7
b0 6
05
x4
03
b0 2
b0 1
bx 0
bx /
bx .
b0 -
b0 ,
bx +
bx *
bx )
bx (
1'
x&
bx %
bx $
0#
1"
0!
$end
#10000
b0 $#
b0 $
b0 R
b0 [
b0 f
b0 j
b0 a
b0 c
0Y
0&
b0 Z
b0 J
b0 \
b0 %
b0 Q
b0 ##
b0 ]
b0 8
b0 b
b0 ^
b0 9
b0 g
0""
04
b0 !"
b0 0
b0 -"
b0 ~
b0 /
b0 *"
b0 }
b0 .
b0 )"
b0 |
b0 +
b0 $"
b0 {
b0 *
b0 #"
b0 >"
b0 @
b0 D"
b0 ="
b0 >
b0 C"
0A"
0F
0B"
0H
b0 ?"
b0 B
b0 E"
b0 @"
b0 D
b0 F"
b0 R"
b0 U
b0 ,"
b0 ~"
b0 Q"
b0 T
b0 +"
b0 }"
0U"
0W
0V"
0X
b0 S"
b0 V
b0 y"
b0 T"
b0 S
b0 z"
b0 "#
b0 )
b0 &"
b0 !#
b0 (
b0 %"
1!
1#
#20000
0!
0#
#30000
1!
1#
#40000
0!
0#
#50000
1!
1#
#60000
0!
0#
#70000
1!
1#
#80000
0!
0#
#90000
1!
1#
#100000
0!
0#
#110000
1!
1#
#120000
0!
0#
#130000
1!
1#
#140000
0!
0#
#150000
1!
1#
#160000
0!
0#
#170000
1!
1#
#180000
0!
0#
#190000
1!
1#
#195000
1s
1P
1u
1=
b0 m
b10 l
b10 7
b10 w
b1111100 k
b1111100 6
b1111100 v
0"
0'
#200000
0!
0#
#210000
b0 m
1s
1P
1u
1=
b10 l
b10 7
b10 w
b0 r
b0 ;
b0 y
b111100000000010000000000000000 $#
b111100000000010000000000000000 $
b111100000000010000000000000000 R
b111100000000010000000000000000 [
b0 6"
b0 2
b0 `
b0 <"
18"
15
b0 4"
1Y
1&
1""
14
b10 |
b10 +
b10 $"
b1111100 {
b1111100 *
b1111100 #"
1!
1#
#220000
0!
0#
#230000
1p
1M
b1 t
b1 <
b1 z
b100101 k
b100101 6
b100101 v
1L"
1I
b0 m
b1 q
b1 N
b1 X"
0s
0P
1u
1=
b1 l
b1 7
b1 w
b111100000000101111111111111111 $#
b111100000000101111111111111111 $
b111100000000101111111111111111 R
b111100000000101111111111111111 [
b1111 f
b10000000000000000 c
1B"
1H
b111100000000010000000000000000 ]
b111100000000010000000000000000 8
b111100000000010000000000000000 b
b100 Z
b100 J
b100 \
b100 %
b100 Q
b100 ##
1!
1#
#240000
0!
0#
#250000
b11111111111111110000000000000000 r
b11111111111111110000000000000000 ;
b11111111111111110000000000000000 y
b111100000000110000010100000101 $#
b111100000000110000010100000101 $
b111100000000110000010100000101 R
b111100000000110000010100000101 [
b11111111111111110000000000000000 m
b10 q
b10 N
b10 X"
1p
1M
b10 t
b10 <
b10 z
1u
1=
b1 l
b1 7
b1 w
b0 6"
b0 2
b0 `
b0 <"
b1 5"
b1 1
b1 _
b1 ;"
b0 2"
b11111 j
b111111 a
b101111111111111111 c
b1000 Z
b1000 J
b1000 \
b1000 %
b1000 Q
b1000 ##
b111100000000101111111111111111 ]
b111100000000101111111111111111 8
b111100000000101111111111111111 b
b100 ^
b100 9
b100 g
b1 !"
b1 0
b1 -"
b1 |
b1 +
b1 $"
b100101 {
b100101 *
b100101 #"
1V"
1X
1!
1#
#260000
0!
0#
#270000
b11111111111111110000000000000000 6"
b11111111111111110000000000000000 2
b11111111111111110000000000000000 `
b11111111111111110000000000000000 <"
b101000001010000000000000000 r
b101000001010000000000000000 ;
b101000001010000000000000000 y
b1 I"
b1 C
b1 d
b1 O"
b10 5"
b10 1
b10 _
b10 ;"
b11111111111111110000000000000000 2"
b101000001010000000000000000 m
b11 q
b11 N
b11 X"
1p
1M
b11 t
b11 <
b11 z
1u
1=
b1 l
b1 7
b1 w
b111100000001000000000000000000 $#
b111100000001000000000000000000 $
b111100000001000000000000000000 R
b111100000001000000000000000000 [
b10100 j
b101 a
b110000010100000101 c
b1 ?"
b1 B
b1 E"
b10 !"
b10 0
b10 -"
b11111111111111110000000000000000 ~
b11111111111111110000000000000000 /
b11111111111111110000000000000000 *"
b111100000000110000010100000101 ]
b111100000000110000010100000101 8
b111100000000110000010100000101 b
b1000 ^
b1000 9
b1000 g
b1100 Z
b1100 J
b1100 \
b1100 %
b1100 Q
b1100 ##
1!
1#
#280000
0!
0#
#290000
b101000001010000000000000000 6"
b101000001010000000000000000 2
b101000001010000000000000000 `
b101000001010000000000000000 <"
b0 r
b0 ;
b0 y
b10000010010000000001010 $#
b10000010010000000001010 $
b10000010010000000001010 R
b10000010010000000001010 [
b0 m
b100 q
b100 N
b100 X"
1p
1M
b100 t
b100 <
b100 z
1u
1=
b1 l
b1 7
b1 w
b11 5"
b11 1
b11 _
b11 ;"
b101000001010000000000000000 2"
b10 I"
b10 C
b10 d
b10 O"
b11111111111111110000000000000000 J"
b11111111111111110000000000000000 E
b11111111111111110000000000000000 e
b11111111111111110000000000000000 P"
b0 j
b0 a
b1000000000000000000 c
b10000 Z
b10000 J
b10000 \
b10000 %
b10000 Q
b10000 ##
b111100000001000000000000000000 ]
b111100000001000000000000000000 8
b111100000001000000000000000000 b
b1100 ^
b1100 9
b1100 g
b11 !"
b11 0
b11 -"
b101000001010000000000000000 ~
b101000001010000000000000000 /
b101000001010000000000000000 *"
b10 ?"
b10 B
b10 E"
b11111111111111110000000000000000 @"
b11111111111111110000000000000000 D
b11111111111111110000000000000000 F"
b1 S"
b1 V
b1 y"
1!
1#
#300000
0!
0#
#310000
b11111111111111110000000000000000 o
b11111111111111110000000000000000 :
b11111111111111110000000000000000 x
b0 6"
b0 2
b0 `
b0 <"
b11111111111111110000000000000000 {"
b11111111111111110000000000000000 L
b11111111111111110000000000000000 h
1s
1P
b1011 k
b1011 6
b1011 v
b11 I"
b11 C
b11 d
b11 O"
b101000001010000000000000000 J"
b101000001010000000000000000 E
b101000001010000000000000000 e
b101000001010000000000000000 P"
b100 5"
b100 1
b100 _
b100 ;"
b0 2"
b0 m
b100 t
b100 <
b100 z
b1 q
b1 N
b1 X"
b10 n
b10 K
b10 W"
1p
1M
1u
1=
b11 l
b11 7
b11 w
b11000010010000000001011 $#
b11000010010000000001011 $
b11000010010000000001011 R
b11000010010000000001011 [
b0 f
b1010 a
b10000010010000000001010 c
b0 Z"
b10 S"
b10 V
b10 y"
b11111111111111110000000000000000 T"
b11111111111111110000000000000000 S
b11111111111111110000000000000000 z"
b11 ?"
b11 B
b11 E"
b101000001010000000000000000 @"
b101000001010000000000000000 D
b101000001010000000000000000 F"
b100 !"
b100 0
b100 -"
b0 ~
b0 /
b0 *"
b10000010010000000001010 ]
b10000010010000000001010 8
b10000010010000000001010 b
b10000 ^
b10000 9
b10000 g
b10100 Z
b10100 J
b10100 \
b10100 %
b10100 Q
b10100 ##
1!
1#
#320000
0!
0#
#330000
b101000001010000000000000000 o
b101000001010000000000000000 :
b101000001010000000000000000 x
b101000001010000000000000000 {"
b101000001010000000000000000 L
b101000001010000000000000000 h
b11000100010000000001011 $#
b11000100010000000001011 $
b11000100010000000001011 R
b11000100010000000001011 [
1s
1P
b11 n
b11 K
b11 W"
1p
1M
0u
0=
b11 l
b11 7
b11 w
b11111111111111110000000000000000 6"
b11111111111111110000000000000000 2
b11111111111111110000000000000000 `
b11111111111111110000000000000000 <"
b11111111111111110000000000000000 3"
b100 I"
b100 C
b100 d
b100 O"
b0 J"
b0 E
b0 e
b0 P"
b1011 a
b11000010010000000001011 c
b11000 Z
b11000 J
b11000 \
b11000 %
b11000 Q
b11000 ##
b11000010010000000001011 ]
b11000010010000000001011 8
b11000010010000000001011 b
b10100 ^
b10100 9
b10100 g
b11111111111111110000000000000000 }
b11111111111111110000000000000000 .
b11111111111111110000000000000000 )"
b11 |
b11 +
b11 $"
b1011 {
b1011 *
b1011 #"
b100 ?"
b100 B
b100 E"
b0 @"
b0 D
b0 F"
b11 S"
b11 V
b11 y"
b101000001010000000000000000 T"
b101000001010000000000000000 S
b101000001010000000000000000 z"
b11111111111111110000000000000000 e"
1!
1#
#340000
0!
0#
#350000
1u
1=
b11111111111111110000000000000000 r
b11111111111111110000000000000000 ;
b11111111111111110000000000000000 y
b101000001010000000000000000 6"
b101000001010000000000000000 2
b101000001010000000000000000 `
b101000001010000000000000000 <"
b11111111111111110000000000000000 |"
b11111111111111110000000000000000 O
b11111111111111110000000000000000 i
b11111111111111110000000000000000 J"
b11111111111111110000000000000000 E
b11111111111111110000000000000000 e
b11111111111111110000000000000000 P"
08"
05
b101000001010000000000000000 3"
b10 q
b10 N
b10 X"
1s
1P
1p
1M
b11 l
b11 7
b11 w
b10000110010000000001010 $#
b10000110010000000001010 $
b10000110010000000001010 R
b10000110010000000001010 [
b11000100010000000001011 c
b101000001010000000000000000 p"
b100 S"
b100 V
b100 y"
b0 T"
b0 S
b0 z"
b11111111111111110000000000000000 @"
b11111111111111110000000000000000 D
b11111111111111110000000000000000 F"
0""
04
b101000001010000000000000000 }
b101000001010000000000000000 .
b101000001010000000000000000 )"
b11000100010000000001011 ]
b11000100010000000001011 8
b11000100010000000001011 b
b11000 ^
b11000 9
b11000 g
b11100 Z
b11100 J
b11100 \
b11100 %
b11100 Q
b11100 ##
1!
1#
#360000
0!
0#
#370000
b101000001010000000000000000 r
b101000001010000000000000000 ;
b101000001010000000000000000 y
b11111111111111110000000000000000 o
b11111111111111110000000000000000 :
b11111111111111110000000000000000 x
b101000001010000000000000000 |"
b101000001010000000000000000 O
b101000001010000000000000000 i
b11111111111111110000000000000000 {"
b11111111111111110000000000000000 L
b11111111111111110000000000000000 h
b10001 $#
b10001 $
b10001 R
b10001 [
b11 q
b11 N
b11 X"
1s
1P
b10 n
b10 K
b10 W"
1p
1M
0u
0=
b11 l
b11 7
b11 w
18"
15
0L"
0I
b101000001010000000000000000 J"
b101000001010000000000000000 E
b101000001010000000000000000 e
b101000001010000000000000000 P"
b1010 a
b10000110010000000001010 c
b100000 Z
b100000 J
b100000 \
b100000 %
b100000 Q
b100000 ##
b10000110010000000001010 ]
b10000110010000000001010 8
b10000110010000000001010 b
b11100 ^
b11100 9
b11100 g
1""
14
b11111111111111110000000000000000 ~
b11111111111111110000000000000000 /
b11111111111111110000000000000000 *"
0B"
0H
b101000001010000000000000000 @"
b101000001010000000000000000 D
b101000001010000000000000000 F"
b11111111111111110000000000000000 T"
b11111111111111110000000000000000 S
b11111111111111110000000000000000 z"
b0 s"
1!
1#
#380000
0!
0#
#390000
b0 o
b0 :
b0 x
b11111111111111110000000000000000 6"
b11111111111111110000000000000000 2
b11111111111111110000000000000000 `
b11111111111111110000000000000000 <"
b0 |"
b0 O
b0 i
b0 r
b0 ;
b0 y
b0 {"
b0 L
b0 h
b10001 k
b10001 6
b10001 v
1L"
1I
08"
05
b11111111111111110000000000000000 3"
b0 q
b0 N
b0 X"
0s
0P
b0 n
b0 K
b0 W"
1p
1M
b0 t
b0 <
b0 z
b0 l
b0 7
b0 w
b10000000000000000010001 $#
b10000000000000000010001 $
b10000000000000000010001 R
b10000000000000000010001 [
b10001 a
b10001 c
b11111111111111110000000000000000 s"
0V"
0X
b101000001010000000000000000 T"
b101000001010000000000000000 S
b101000001010000000000000000 z"
1B"
1H
0""
04
b101000001010000000000000000 ~
b101000001010000000000000000 /
b101000001010000000000000000 *"
b11111111111111110000000000000000 }
b11111111111111110000000000000000 .
b11111111111111110000000000000000 )"
b10001 ]
b10001 8
b10001 b
b100000 ^
b100000 9
b100000 g
b100100 Z
b100100 J
b100100 \
b100100 %
b100100 Q
b100100 ##
1!
1#
#400000
0!
0#
#410000
b11111111111111110000000000000000 o
b11111111111111110000000000000000 :
b11111111111111110000000000000000 x
b11111111111111110000000000000000 {"
b11111111111111110000000000000000 L
b11111111111111110000000000000000 h
b11000000000000000010001 $#
b11000000000000000010001 $
b11000000000000000010001 R
b11000000000000000010001 [
b10 n
b10 K
b10 W"
1p
1M
b0 6"
b0 2
b0 `
b0 <"
b0 5"
b0 1
b0 _
b0 ;"
17"
13
0L"
0I
b11111111111111110000000000000000 J"
b11111111111111110000000000000000 E
b11111111111111110000000000000000 e
b11111111111111110000000000000000 P"
b10000000000000000010001 c
b101000 Z
b101000 J
b101000 \
b101000 %
b101000 Q
b101000 ##
b10000000000000000010001 ]
b10000000000000000010001 8
b10000000000000000010001 b
b100100 ^
b100100 9
b100100 g
b0 !"
b0 0
b0 -"
b0 ~
b0 /
b0 *"
b0 }
b0 .
b0 )"
b0 |
b0 +
b0 $"
b10001 {
b10001 *
b10001 #"
0B"
0H
b11111111111111110000000000000000 @"
b11111111111111110000000000000000 D
b11111111111111110000000000000000 F"
1V"
1X
1!
1#
#420000
0!
0#
#430000
b101000001010000000000000000 o
b101000001010000000000000000 :
b101000001010000000000000000 x
b101000001010000000000000000 {"
b101000001010000000000000000 L
b101000001010000000000000000 h
1K"
1G
b0 I"
b0 C
b0 d
b0 O"
b0 J"
b0 E
b0 e
b0 P"
b11111111111111110000000000000000 0"
b11111111111111110000000000000000 ,
b11111111111111110000000000000000 9"
b11 n
b11 K
b11 W"
1p
1M
b10000000010000 $#
b10000000010000 $
b10000000010000 R
b10000000010000 [
b11000000000000000010001 c
b101000001010000000000000000 s"
0V"
0X
b11111111111111110000000000000000 T"
b11111111111111110000000000000000 S
b11111111111111110000000000000000 z"
1A"
1F
b0 ?"
b0 B
b0 E"
b0 @"
b0 D
b0 F"
b11111111111111110000000000000000 }
b11111111111111110000000000000000 .
b11111111111111110000000000000000 )"
b11000000000000000010001 ]
b11000000000000000010001 8
b11000000000000000010001 b
b101000 ^
b101000 9
b101000 g
b101100 Z
b101100 J
b101100 \
b101100 %
b101100 Q
b101100 ##
1!
1#
#440000
0!
0#
#450000
b0 {"
b0 L
b0 h
b0 o
b0 :
b0 x
b11111111111111110000000000000000 ."
1u
1=
b11 l
b11 7
b11 w
b10000 k
b10000 6
b10000 v
b11000000000000000010011 $#
b11000000000000000010011 $
b11000000000000000010011 R
b11000000000000000010011 [
b0 n
b0 K
b0 W"
0p
0M
b100 t
b100 <
b100 z
b101000001010000000000000000 0"
b101000001010000000000000000 ,
b101000001010000000000000000 9"
b11111111111111110000000000000000 G"
b11111111111111110000000000000000 ?
b11111111111111110000000000000000 '"
b11111111111111110000000000000000 M"
b10000 a
b10000000010000 c
b110000 Z
b110000 J
b110000 \
b110000 %
b110000 Q
b110000 ##
b10000000010000 ]
b10000000010000 8
b10000000010000 b
b101100 ^
b101100 9
b101100 g
b101000001010000000000000000 }
b101000001010000000000000000 .
b101000001010000000000000000 )"
b11111111111111110000000000000000 ="
b11111111111111110000000000000000 >
b11111111111111110000000000000000 C"
1U"
1W
b0 S"
b0 V
b0 y"
b0 T"
b0 S
b0 z"
1!
1#
#460000
0!
0#
#470000
b101000001010000000000000000 3"
b101000001010000000000000000 o
b101000001010000000000000000 :
b101000001010000000000000000 x
b101000001010000000000000000 ."
b101000001010000000000000000 {"
b101000001010000000000000000 L
b101000001010000000000000000 h
1p
1M
b10011 k
b10011 6
b10011 v
b101000001010000000000000000 G"
b101000001010000000000000000 ?
b101000001010000000000000000 '"
b101000001010000000000000000 M"
b101000001010000000000000000 6"
b101000001010000000000000000 2
b101000001010000000000000000 `
b101000001010000000000000000 <"
b100 5"
b100 1
b100 _
b100 ;"
18"
15
b0 0"
b0 ,
b0 9"
07"
03
b11 n
b11 K
b11 W"
b0 t
b0 <
b0 z
0u
0=
b0 l
b0 7
b0 w
b10000000000000000010011 $#
b10000000000000000010011 $
b10000000000000000010011 R
b10000000000000000010011 [
b10011 a
b11000000000000000010011 c
b11111111111111110000000000000000 Q"
b11111111111111110000000000000000 T
b11111111111111110000000000000000 +"
b11111111111111110000000000000000 }"
b101000001010000000000000000 ="
b101000001010000000000000000 >
b101000001010000000000000000 C"
1""
14
b100 !"
b100 0
b100 -"
b0 }
b0 .
b0 )"
b11 |
b11 +
b11 $"
b10000 {
b10000 *
b10000 #"
b11000000000000000010011 ]
b11000000000000000010011 8
b11000000000000000010011 b
b110000 ^
b110000 9
b110000 g
b110100 Z
b110100 J
b110100 \
b110100 %
b110100 Q
b110100 ##
1!
1#
#480000
0!
0#
#490000
b11111111111111110000000000000000 o
b11111111111111110000000000000000 :
b11111111111111110000000000000000 x
b11111111111111110000000000000000 {"
b11111111111111110000000000000000 L
b11111111111111110000000000000000 h
b1000000000000000010011 $#
b1000000000000000010011 $
b1000000000000000010011 R
b1000000000000000010011 [
b10 n
b10 K
b10 W"
1p
1M
b0 6"
b0 2
b0 `
b0 <"
b0 5"
b0 1
b0 _
b0 ;"
08"
05
b101000001010000000000000000 0"
b101000001010000000000000000 ,
b101000001010000000000000000 9"
b101000001010000000000000000 1"
b101000001010000000000000000 -
b101000001010000000000000000 :"
17"
13
b0 G"
b0 ?
b0 '"
b0 M"
0K"
0G
1L"
1I
b100 I"
b100 C
b100 d
b100 O"
b101000001010000000000000000 J"
b101000001010000000000000000 E
b101000001010000000000000000 e
b101000001010000000000000000 P"
b10000000000000000010011 c
b111000 Z
b111000 J
b111000 \
b111000 %
b111000 Q
b111000 ##
b10000000000000000010011 ]
b10000000000000000010011 8
b10000000000000000010011 b
b110100 ^
b110100 9
b110100 g
0""
04
b0 !"
b0 0
b0 -"
b101000001010000000000000000 }
b101000001010000000000000000 .
b101000001010000000000000000 )"
b0 |
b0 +
b0 $"
b10011 {
b10011 *
b10011 #"
b0 ="
b0 >
b0 C"
0A"
0F
1B"
1H
b100 ?"
b100 B
b100 E"
b101000001010000000000000000 @"
b101000001010000000000000000 D
b101000001010000000000000000 F"
b101000001010000000000000000 Q"
b101000001010000000000000000 T
b101000001010000000000000000 +"
b101000001010000000000000000 }"
b11111111111111110000000000000000 !#
b11111111111111110000000000000000 (
b11111111111111110000000000000000 %"
1!
1#
#500000
0!
0#
