wave.vcd
$date
	Fri Dec  6 21:40:58 2019
$end
$version
	Icarus Verilog
$end
$timescale
	1ps
$end
$scope module openmips_min_sopc_tb $end
$var reg 1 ! CLOCK_50 $end
$var reg 1 " rst $end
$scope module openmips_min_sopc0 $end
$var wire 1 # clk $end
$var wire 32 $ inst [31:0] $end
$var wire 32 % inst_addr [31:0] $end
$var wire 1 & rom_ce $end
$var wire 1 ' rst $end
$scope module openmips0 $end
$var wire 32 ( HI [31:0] $end
$var wire 32 ) LO [31:0] $end
$var wire 1 # clk $end
$var wire 8 * ex_aluop_i [7:0] $end
$var wire 3 + ex_alusel_i [2:0] $end
$var wire 32 , ex_hi_o [31:0] $end
$var wire 32 - ex_lo_o [31:0] $end
$var wire 32 . ex_reg1_i [31:0] $end
$var wire 32 / ex_reg2_i [31:0] $end
$var wire 5 0 ex_wd_i [4:0] $end
$var wire 5 1 ex_wd_o [4:0] $end
$var wire 32 2 ex_wdata_o [31:0] $end
$var wire 1 3 ex_whilo_o $end
$var wire 1 4 ex_wreg_i $end
$var wire 1 5 ex_wreg_o $end
$var wire 8 6 id_aluop_o [7:0] $end
$var wire 3 7 id_alusel_o [2:0] $end
$var wire 32 8 id_inst_i [31:0] $end
$var wire 32 9 id_pc_i [31:0] $end
$var wire 32 : id_reg1_o [31:0] $end
$var wire 32 ; id_reg2_o [31:0] $end
$var wire 5 < id_wd_o [4:0] $end
$var wire 1 = id_wreg_o $end
$var wire 32 > mem_hi_i [31:0] $end
$var wire 32 ? mem_hi_o [31:0] $end
$var wire 32 @ mem_lo_i [31:0] $end
$var wire 32 A mem_lo_o [31:0] $end
$var wire 5 B mem_wd_i [4:0] $end
$var wire 5 C mem_wd_o [4:0] $end
$var wire 32 D mem_wdata_i [31:0] $end
$var wire 32 E mem_wdata_o [31:0] $end
$var wire 1 F mem_whilo_i $end
$var wire 1 G mem_whilo_o $end
$var wire 1 H mem_wreg_i $end
$var wire 1 I mem_wreg_o $end
$var wire 32 J pc [31:0] $end
$var wire 5 K reg1_addr [4:0] $end
$var wire 32 L reg1_data [31:0] $end
$var wire 1 M reg1_read $end
$var wire 5 N reg2_addr [4:0] $end
$var wire 32 O reg2_data [31:0] $end
$var wire 1 P reg2_read $end
$var wire 32 Q rom_addr_o [31:0] $end
$var wire 1 & rom_ce_o $end
$var wire 32 R rom_data_i [31:0] $end
$var wire 1 ' rst $end
$var wire 32 S wb_data_i [31:0] $end
$var wire 32 T wb_hi_i [31:0] $end
$var wire 32 U wb_lo_i [31:0] $end
$var wire 5 V wb_wd_i [4:0] $end
$var wire 1 W wb_whilo_i $end
$var wire 1 X wb_wreg_o $end
$scope module pc_reg0 $end
$var wire 1 # clk $end
$var wire 1 ' rst $end
$var reg 1 Y ce $end
$var reg 32 Z pc [31:0] $end
$upscope $end
$scope module if_id0 $end
$var wire 1 # clk $end
$var wire 32 [ if_inst [31:0] $end
$var wire 32 \ if_pc [31:0] $end
$var wire 1 ' rst $end
$var reg 32 ] id_inst [31:0] $end
$var reg 32 ^ id_pc [31:0] $end
$upscope $end
$scope module id_0 $end
$var wire 5 _ ex_wd_i [4:0] $end
$var wire 32 ` ex_wdata_i [31:0] $end
$var wire 1 5 ex_wreg_i $end
$var wire 6 a funct [5:0] $end
$var wire 32 b inst_i [31:0] $end
$var wire 26 c jump_addr [25:0] $end
$var wire 5 d mem_wd_i [4:0] $end
$var wire 32 e mem_wdata_i [31:0] $end
$var wire 1 I mem_wreg_i $end
$var wire 6 f opcode [5:0] $end
$var wire 32 g pc_i [31:0] $end
$var wire 32 h reg1_data_i [31:0] $end
$var wire 32 i reg2_data_i [31:0] $end
$var wire 1 ' rst $end
$var wire 5 j shamt [4:0] $end
$var reg 8 k aluop_o [7:0] $end
$var reg 3 l alusel_o [2:0] $end
$var reg 33 m imm [32:0] $end
$var reg 5 n reg1_addr_o [4:0] $end
$var reg 32 o reg1_o [31:0] $end
$var reg 1 p reg1_read_o $end
$var reg 5 q reg2_addr_o [4:0] $end
$var reg 32 r reg2_o [31:0] $end
$var reg 1 s reg2_read_o $end
$var reg 5 t wd_o [4:0] $end
$var reg 1 u wreg_o $end
$upscope $end
$scope module id_ex0 $end
$var wire 1 # clk $end
$var wire 8 v id_aluop [7:0] $end
$var wire 3 w id_alusel [2:0] $end
$var wire 32 x id_reg1 [31:0] $end
$var wire 32 y id_reg2 [31:0] $end
$var wire 5 z id_wd [4:0] $end
$var wire 1 = id_wreg $end
$var wire 1 ' rst $end
$var reg 8 { ex_aluop [7:0] $end
$var reg 3 | ex_alusel [2:0] $end
$var reg 32 } ex_reg1 [31:0] $end
$var reg 32 ~ ex_reg2 [31:0] $end
$var reg 5 !" ex_wd [4:0] $end
$var reg 1 "" ex_wreg $end
$upscope $end
$scope module ex_0 $end
$var wire 8 #" aluop_i [7:0] $end
$var wire 3 $" alusel_i [2:0] $end
$var wire 32 %" hi_i [31:0] $end
$var wire 64 &" hilo_temp [63:0] $end
$var wire 32 '" lo_i [31:0] $end
$var wire 32 (" mem_hi_i [31:0] $end
$var wire 32 )" mem_lo_i [31:0] $end
$var wire 1 G mem_whilo_i $end
$var wire 32 *" opdata1_mult [31:0] $end
$var wire 32 +" opdata2_mult [31:0] $end
$var wire 1 ," ov_sum $end
$var wire 32 -" reg1_i [31:0] $end
$var wire 32 ." reg1_i_not [31:0] $end
$var wire 1 /" reg1_lt_reg2 $end
$var wire 32 0" reg2_i [31:0] $end
$var wire 32 1" reg2_i_mux [31:0] $end
$var wire 32 2" result_sum [31:0] $end
$var wire 1 ' rst $end
$var wire 32 3" wb_hi_i [31:0] $end
$var wire 32 4" wb_lo_i [31:0] $end
$var wire 1 W wb_whilo_i $end
$var wire 5 5" wd_i [4:0] $end
$var wire 1 4 wreg_i $end
$var reg 32 6" HI [31:0] $end
$var reg 32 7" LO [31:0] $end
$var reg 32 8" arithmaticres [31:0] $end
$var reg 32 9" hi_o [31:0] $end
$var reg 32 :" lo_o [31:0] $end
$var reg 32 ;" logicout [31:0] $end
$var reg 32 <" moveres [31:0] $end
$var reg 64 =" mulres [63:0] $end
$var reg 32 >" shiftres [31:0] $end
$var reg 5 ?" wd_o [4:0] $end
$var reg 32 @" wdata_o [31:0] $end
$var reg 1 A" whilo_o $end
$var reg 1 B" wreg_o $end
$upscope $end
$scope module ex_mem0 $end
$var wire 1 # clk $end
$var wire 32 C" ex_hi [31:0] $end
$var wire 32 D" ex_lo [31:0] $end
$var wire 5 E" ex_wd [4:0] $end
$var wire 32 F" ex_wdata [31:0] $end
$var wire 1 3 ex_whilo $end
$var wire 1 5 ex_wreg $end
$var wire 1 ' rst $end
$var reg 32 G" mem_hi [31:0] $end
$var reg 32 H" mem_lo [31:0] $end
$var reg 5 I" mem_wd [4:0] $end
$var reg 32 J" mem_wdata [31:0] $end
$var reg 1 K" mem_whilo $end
$var reg 1 L" mem_wreg $end
$upscope $end
$scope module mem0 $end
$var wire 32 M" hi_i [31:0] $end
$var wire 32 N" lo_i [31:0] $end
$var wire 1 ' rst $end
$var wire 5 O" wd_i [4:0] $end
$var wire 32 P" wdata_i [31:0] $end
$var wire 1 F whilo_i $end
$var wire 1 H wreg_i $end
$var reg 32 Q" hi_o [31:0] $end
$var reg 32 R" lo_o [31:0] $end
$var reg 5 S" wd_o [4:0] $end
$var reg 32 T" wdata_o [31:0] $end
$var reg 1 U" whilo_o $end
$var reg 1 V" wreg_o $end
$upscope $end
$scope module mem_wb0 $end
$var wire 1 # clk $end
$var wire 32 W" mem_hi [31:0] $end
$var wire 32 X" mem_lo [31:0] $end
$var wire 5 Y" mem_wd [4:0] $end
$var wire 32 Z" mem_wdata [31:0] $end
$var wire 1 G mem_whilo $end
$var wire 1 I mem_wreg $end
$var wire 1 ' rst $end
$var reg 32 [" wb_hi [31:0] $end
$var reg 32 \" wb_lo [31:0] $end
$var reg 5 ]" wb_wd [4:0] $end
$var reg 32 ^" wb_wdata [31:0] $end
$var reg 1 _" wb_whilo $end
$var reg 1 `" wb_wreg $end
$upscope $end
$scope module regfile0 $end
$var wire 1 # clk $end
$var wire 5 a" raddr1 [4:0] $end
$var wire 5 b" raddr2 [4:0] $end
$var wire 1 M re1 $end
$var wire 1 P re2 $end
$var wire 32 c" regs_0 [31:0] $end
$var wire 32 d" regs_1 [31:0] $end
$var wire 32 e" regs_10 [31:0] $end
$var wire 32 f" regs_11 [31:0] $end
$var wire 32 g" regs_12 [31:0] $end
$var wire 32 h" regs_13 [31:0] $end
$var wire 32 i" regs_14 [31:0] $end
$var wire 32 j" regs_15 [31:0] $end
$var wire 32 k" regs_16 [31:0] $end
$var wire 32 l" regs_17 [31:0] $end
$var wire 32 m" regs_18 [31:0] $end
$var wire 32 n" regs_19 [31:0] $end
$var wire 32 o" regs_2 [31:0] $end
$var wire 32 p" regs_20 [31:0] $end
$var wire 32 q" regs_21 [31:0] $end
$var wire 32 r" regs_22 [31:0] $end
$var wire 32 s" regs_23 [31:0] $end
$var wire 32 t" regs_24 [31:0] $end
$var wire 32 u" regs_25 [31:0] $end
$var wire 32 v" regs_26 [31:0] $end
$var wire 32 w" regs_27 [31:0] $end
$var wire 32 x" regs_28 [31:0] $end
$var wire 32 y" regs_29 [31:0] $end
$var wire 32 z" regs_3 [31:0] $end
$var wire 32 {" regs_30 [31:0] $end
$var wire 32 |" regs_31 [31:0] $end
$var wire 32 }" regs_4 [31:0] $end
$var wire 32 ~" regs_5 [31:0] $end
$var wire 32 !# regs_6 [31:0] $end
$var wire 32 "# regs_7 [31:0] $end
$var wire 32 ## regs_8 [31:0] $end
$var wire 32 $# regs_9 [31:0] $end
$var wire 1 ' rst $end
$var wire 5 %# waddr [4:0] $end
$var wire 32 &# wdata [31:0] $end
$var wire 1 X we $end
$var reg 32 '# rdata1 [31:0] $end
$var reg 32 (# rdata2 [31:0] $end
$upscope $end
$scope module hilo_reg0 $end
$var wire 1 # clk $end
$var wire 32 )# hi_i [31:0] $end
$var wire 32 *# lo_i [31:0] $end
$var wire 1 ' rst $end
$var wire 1 W we $end
$var reg 32 +# hi_o [31:0] $end
$var reg 32 ,# lo_o [31:0] $end
$upscope $end
$upscope $end
$scope module inst_rom0 $end
$var wire 32 -# addr [31:0] $end
$var wire 1 & ce $end
$var reg 32 .# inst [31:0] $end
$upscope $end
$upscope $end
$upscope $end
$enddefinitions $end
#0
$dumpvars
bx .#
bx -#
bx ,#
bx +#
bx *#
bx )#
b0 (#
b0 '#
bx &#
bx %#
bz $#
bz ##
bz "#
bz !#
bz ~"
bz }"
bz |"
bz {"
bz z"
bz y"
bz x"
bz w"
bz v"
bz u"
bz t"
bz s"
bz r"
bz q"
bz p"
bz o"
bz n"
bz m"
bz l"
bz k"
bz j"
bz i"
bz h"
bz g"
bz f"
bz e"
bz d"
b0 c"
b0 b"
b0 a"
x`"
x_"
bx ^"
bx ]"
bx \"
bx ["
b0 Z"
b0 Y"
b0 X"
b0 W"
0V"
0U"
b0 T"
b0 S"
b0 R"
b0 Q"
bx P"
bx O"
bx N"
bx M"
xL"
xK"
bx J"
bx I"
bx H"
bx G"
b0 F"
bx E"
b0 D"
b0 C"
xB"
0A"
b0 @"
bx ?"
bx >"
b0 ="
bx <"
bx ;"
b0 :"
b0 9"
b0 8"
b0 7"
b0 6"
bx 5"
bx 4"
bx 3"
bx 2"
bx 1"
bx 0"
x/"
bx ."
bx -"
x,"
bx +"
bx *"
b0 )"
b0 ("
bx '"
bx &"
bx %"
bx $"
bx #"
x""
bx !"
bx ~
bx }
bx |
bx {
b0 z
b0 y
b0 x
b0 w
b0 v
0u
b0 t
0s
b0 r
b0 q
0p
b0 o
b0 n
b0 m
b0 l
b0 k
bx j
b0 i
b0 h
bx g
bx f
b0 e
b0 d
bx c
bx b
bx a
b0 `
bx _
bx ^
bx ]
bx \
bx [
bx Z
xY
xX
xW
bx V
bx U
bx T
bx S
bx R
bx Q
0P
b0 O
b0 N
0M
b0 L
b0 K
bx J
0I
xH
0G
xF
b0 E
bx D
b0 C
bx B
b0 A
bx @
b0 ?
bx >
0=
b0 <
b0 ;
b0 :
bx 9
bx 8
b0 7
b0 6
x5
x4
03
b0 2
bx 1
bx 0
bx /
bx .
b0 -
b0 ,
bx +
bx *
bx )
bx (
1'
x&
bx %
bx $
0#
1"
0!
$end
#10000
b0 .#
b0 $
b0 R
b0 [
0B"
05
b0 ?"
b0 1
b0 _
b0 E"
0,"
b0 2"
b0 1"
b0 &"
b0 +"
b0 *"
b0 f
b0 j
b0 a
b0 c
b11111111111111111111111111111111 ."
0/"
0Y
0&
b0 Z
b0 J
b0 \
b0 %
b0 Q
b0 -#
b0 ]
b0 8
b0 b
b0 ^
b0 9
b0 g
0""
04
b0 !"
b0 0
b0 5"
b0 ~
b0 /
b0 0"
b0 }
b0 .
b0 -"
b0 |
b0 +
b0 $"
b0 {
b0 *
b0 #"
b0 H"
b0 @
b0 N"
b0 G"
b0 >
b0 M"
0K"
0F
0L"
0H
b0 I"
b0 B
b0 O"
b0 J"
b0 D
b0 P"
b0 \"
b0 U
b0 4"
b0 *#
b0 ["
b0 T
b0 3"
b0 )#
0_"
0W
0`"
0X
b0 ]"
b0 V
b0 %#
b0 ^"
b0 S
b0 &#
b0 ,#
b0 )
b0 '"
b0 +#
b0 (
b0 %"
1!
1#
#20000
0!
0#
#30000
1!
1#
#40000
0!
0#
#50000
1!
1#
#60000
0!
0#
#70000
1!
1#
#80000
0!
0#
#90000
1!
1#
#100000
0!
0#
#110000
1!
1#
#120000
0!
0#
#130000
1!
1#
#140000
0!
0#
#150000
1!
1#
#160000
0!
0#
#170000
1!
1#
#180000
0!
0#
#190000
1!
1#
#195000
1s
1P
1u
1=
b0 m
b10 l
b10 7
b10 w
b1111100 k
b1111100 6
b1111100 v
0"
0'
#200000
0!
0#
#210000
b0 m
1s
1P
1u
1=
b10 l
b10 7
b10 w
b0 r
b0 ;
b0 y
b110100000000011111111111111111 .#
b110100000000011111111111111111 $
b110100000000011111111111111111 R
b110100000000011111111111111111 [
b0 @"
b0 2
b0 `
b0 F"
1B"
15
b0 >"
1Y
1&
1""
14
b10 |
b10 +
b10 $"
b1111100 {
b1111100 *
b1111100 #"
1!
1#
#220000
0!
0#
#230000
b1111111111111111 r
b1111111111111111 ;
b1111111111111111 y
1p
1M
b100101 k
b100101 6
b100101 v
1V"
1I
b1111111111111111 m
b1 q
b1 N
b1 b"
0s
0P
b1 t
b1 <
b1 z
1u
1=
b1 l
b1 7
b1 w
b10000110000000000 .#
b10000110000000000 $
b10000110000000000 R
b10000110000000000 [
b1101 f
b11111 j
b111111 a
b11111111111111111 c
1L"
1H
b110100000000011111111111111111 ]
b110100000000011111111111111111 8
b110100000000011111111111111111 b
b100 Z
b100 J
b100 \
b100 %
b100 Q
b100 -#
1!
1#
#240000
0!
0#
#250000
bx (#
bx O
bx i
b10000 o
b10000 :
b10000 x
b1111111111111111 r
b1111111111111111 ;
b1111111111111111 y
1s
1P
b1111100 k
b1111100 6
b1111100 v
b110100001000011111111111111011 .#
b110100001000011111111111111011 $
b110100001000011111111111111011 R
b110100001000011111111111111011 [
b10000 m
0p
0M
1u
1=
b10 l
b10 7
b10 w
b1111111111111111 @"
b1111111111111111 2
b1111111111111111 `
b1111111111111111 F"
b1 ?"
b1 1
b1 _
b1 E"
b1111111111111111 ;"
b1111111111111111 2"
b1111111111111111 1"
b1111111111111111 +"
b0 f
b10000 j
b0 a
b10000110000000000 c
1/"
b1000 Z
b1000 J
b1000 \
b1000 %
b1000 Q
b1000 -#
b10000110000000000 ]
b10000110000000000 8
b10000110000000000 b
b100 ^
b100 9
b100 g
b1 !"
b1 0
b1 5"
b1111111111111111 ~
b1111111111111111 /
b1111111111111111 0"
b1 |
b1 +
b1 $"
b100101 {
b100101 *
b100101 #"
1`"
1X
1!
1#
#260000
0!
0#
#270000
b0 (#
b0 O
b0 i
b1111111111111011 r
b1111111111111011 ;
b1111111111111011 y
bx '#
bx L
bx h
b11111111111111110000000000000000 o
b11111111111111110000000000000000 :
b11111111111111110000000000000000 x
b11111111111111110000 ="
1p
1M
b100101 k
b100101 6
b100101 v
b1 S"
b1 C
b1 d
b1 Y"
b1111111111111111 T"
b1111111111111111 E
b1111111111111111 e
b1111111111111111 Z"
b11111111111111110000000000000000 @"
b11111111111111110000000000000000 2
b11111111111111110000000000000000 `
b11111111111111110000000000000000 F"
b11111111111111110000000000000000 >"
b1111111111111011 m
0s
0P
b1 n
b1 K
b1 a"
b1 t
b1 <
b1 z
1u
1=
b1 l
b1 7
b1 w
b110100000000100000000000000110 .#
b110100000000100000000000000110 $
b110100000000100000000000000110 R
b110100000000100000000000000110 [
b11111111111111110000 &"
b10000 *"
b11111111111111111111111111101111 ."
b1101 f
b11111 j
b111011 a
b1000011111111111111011 c
b1 I"
b1 B
b1 O"
b1111111111111111 J"
b1111111111111111 D
b1111111111111111 P"
b10000 }
b10000000000001111 2"
b10000 .
b10000 -"
b10 |
b10 +
b10 $"
b1111100 {
b1111100 *
b1111100 #"
b110100001000011111111111111011 ]
b110100001000011111111111111011 8
b110100001000011111111111111011 b
b1000 ^
b1000 9
b1000 g
b1100 Z
b1100 J
b1100 \
b1100 %
b1100 Q
b1100 -#
1!
1#
#280000
0!
0#
#290000
b110 r
b110 ;
b110 y
b0 o
b0 :
b0 x
b111111111111101000000000000001010000000000000000 ="
b1110000001000100001100000000010 .#
b1110000001000100001100000000010 $
b1110000001000100001100000000010 R
b1110000001000100001100000000010 [
b110 m
b10 q
b10 N
b10 b"
b0 n
b0 K
b0 a"
1p
1M
b10 t
b10 <
b10 z
1u
1=
b1 l
b1 7
b1 w
b11111111111111111111111111111011 @"
b11111111111111111111111111111011 2
b11111111111111111111111111111011 `
b11111111111111111111111111111011 F"
b11111111111111111111111111111011 ;"
b11111111111111110000000000000000 T"
b11111111111111110000000000000000 E
b11111111111111110000000000000000 e
b11111111111111110000000000000000 Z"
b0 '#
b0 L
b0 h
b1111111111111011 1"
b1111111111111011 +"
b111111111111101000000000000001010000000000000000 &"
b11111111111111110000000000000000 *"
b0 j
b110 a
b100000000000000110 c
b1111111111111111 ."
0/"
b10000 Z
b10000 J
b10000 \
b10000 %
b10000 Q
b10000 -#
b110100000000100000000000000110 ]
b110100000000100000000000000110 8
b110100000000100000000000000110 b
b1100 ^
b1100 9
b1100 g
b1111111111111011 ~
b1111111111111011 /
b1111111111111011 0"
b11111111111111110000000000000000 }
b11111111111111111111111111111011 2"
b11111111111111110000000000000000 .
b11111111111111110000000000000000 -"
b1 |
b1 +
b1 $"
b100101 {
b100101 *
b100101 #"
b11111111111111110000000000000000 J"
b11111111111111110000000000000000 D
b11111111111111110000000000000000 P"
b1 ]"
b1 V
b1 %#
b1111111111111111 ^"
b1111111111111111 S
b1111111111111111 &#
1!
1#
#300000
0!
0#
#310000
bx (#
bx O
bx i
b110 @"
b110 2
b110 `
b110 F"
b110 r
b110 ;
b110 y
b11111111111111110000000000000000 '#
b11111111111111110000000000000000 L
b11111111111111110000000000000000 h
b11111111111111111111111111111011 o
b11111111111111111111111111111011 :
b11111111111111111111111111111011 x
b0 ="
1s
1P
b10101001 k
b10101001 6
b10101001 v
b11111111111111111111111111111011 T"
b11111111111111111111111111111011 E
b11111111111111111111111111111011 e
b11111111111111111111111111111011 Z"
b10 ?"
b10 1
b10 _
b10 E"
b110 ;"
b0 m
b1 n
b1 K
b1 a"
1p
1M
b11 t
b11 <
b11 z
1u
1=
b101 l
b101 7
b101 w
b1000100000000000011000 .#
b1000100000000000011000 $
b1000100000000000011000 R
b1000100000000000011000 [
b110 1"
b110 +"
b0 &"
b0 *"
b11111111111111111111111111111111 ."
1/"
b11100 f
b10 a
b1000100001100000000010 c
b1111111111111111 d"
b11111111111111110000000000000000 ^"
b11111111111111110000000000000000 S
b11111111111111110000000000000000 &#
b11111111111111111111111111111011 J"
b11111111111111111111111111111011 D
b11111111111111111111111111111011 P"
b10 !"
b10 0
b10 5"
b110 ~
b110 /
b110 0"
b0 }
b110 2"
b0 .
b0 -"
b1110000001000100001100000000010 ]
b1110000001000100001100000000010 8
b1110000001000100001100000000010 b
b10000 ^
b10000 9
b10000 g
b10100 Z
b10100 J
b10100 \
b10100 %
b10100 Q
b10100 -#
1!
1#
#320000
0!
0#
#330000
b1111111111111111111111111111111111111111111111111111111111100010 ="
b11000 k
b11000 6
b11000 v
b1000100000000000011001 .#
b1000100000000000011001 $
b1000100000000000011001 R
b1000100000000000011001 [
1s
1P
1p
1M
b0 t
b0 <
b0 z
0u
0=
b0 l
b0 7
b0 w
b11111111111111111111111111100010 @"
b11111111111111111111111111100010 2
b11111111111111111111111111100010 `
b11111111111111111111111111100010 F"
b11 ?"
b11 1
b11 _
b11 E"
b10 S"
b10 C
b10 d
b10 Y"
b110 T"
b110 E
b110 e
b110 Z"
b11111111111111111111111111111011 '#
b11111111111111111111111111111011 L
b11111111111111111111111111111011 h
b11110 &"
b101 *"
b0 f
b11000 a
b1000100000000000011000 c
b100 ."
0/"
b11000 Z
b11000 J
b11000 \
b11000 %
b11000 Q
b11000 -#
b1000100000000000011000 ]
b1000100000000000011000 8
b1000100000000000011000 b
b10100 ^
b10100 9
b10100 g
b11 !"
b11 0
b11 5"
b11111111111111111111111111111011 }
b1 2"
b11111111111111111111111111111011 .
b11111111111111111111111111111011 -"
b101 |
b101 +
b101 $"
b10101001 {
b10101001 *
b10101001 #"
b10 I"
b10 B
b10 O"
b110 J"
b110 D
b110 P"
b11111111111111111111111111111011 ^"
b11111111111111111111111111111011 S
b11111111111111111111111111111011 &#
b11111111111111110000000000000000 d"
1!
1#
#340000
0!
0#
#350000
b11001 k
b11001 6
b11001 v
b110 (#
b110 O
b110 i
b11 S"
b11 C
b11 d
b11 Y"
b11111111111111111111111111100010 T"
b11111111111111111111111111100010 E
b11111111111111111111111111100010 e
b11111111111111111111111111100010 Z"
b0 @"
b0 2
b0 `
b0 F"
0B"
05
b0 ?"
b0 1
b0 _
b0 E"
b11111111111111111111111111111111 9"
b11111111111111111111111111111111 ,
b11111111111111111111111111111111 C"
b11111111111111111111111111100010 :"
b11111111111111111111111111100010 -
b11111111111111111111111111100010 D"
1A"
13
1s
1P
1p
1M
b0 .#
b0 $
b0 R
b0 [
b11001 a
b1000100000000000011001 c
b11111111111111111111111111111011 d"
b10 ]"
b10 V
b10 %#
b110 ^"
b110 S
b110 &#
b11 I"
b11 B
b11 O"
b11111111111111111111111111100010 J"
b11111111111111111111111111100010 D
b11111111111111111111111111100010 P"
0""
04
b0 !"
b0 0
b0 5"
b0 |
b0 +
b0 $"
b11000 {
b11000 *
b11000 #"
b1000100000000000011001 ]
b1000100000000000011001 8
b1000100000000000011001 b
b11000 ^
b11000 9
b11000 g
b11100 Z
b11100 J
b11100 \
b11100 %
b11100 Q
b11100 -#
1!
1#
#360000
0!
0#
#370000
b0 r
b0 ;
b0 y
b0 (#
b0 O
b0 i
b0 '#
b0 L
b0 h
b101 9"
b101 ,
b101 C"
b11111111111111111111111111100010 7"
b11111111111111111111111111111111 6"
b0 o
b0 :
b0 x
1u
1=
b0 m
b10 l
b10 7
b10 w
b1111100 k
b1111100 6
b1111100 v
b0 q
b0 N
b0 b"
1s
1P
b0 n
b0 K
b0 a"
0p
0M
b10111111111111111111111111111100010 ="
b11111111111111111111111111100010 R"
b11111111111111111111111111100010 A
b11111111111111111111111111100010 )"
b11111111111111111111111111100010 X"
b11111111111111111111111111111111 Q"
b11111111111111111111111111111111 ?
b11111111111111111111111111111111 ("
b11111111111111111111111111111111 W"
1U"
1G
0V"
0I
b0 S"
b0 C
b0 d
b0 Y"
b0 T"
b0 E
b0 e
b0 Z"
b10111111111111111111111111111100010 &"
b11111111111111111111111111111011 *"
b0 a
b0 c
b100000 Z
b100000 J
b100000 \
b100000 %
b100000 Q
b100000 -#
b0 ]
b0 8
b0 b
b11100 ^
b11100 9
b11100 g
b11001 {
b11001 *
b11001 #"
b11111111111111111111111111100010 H"
b11111111111111111111111111100010 @
b11111111111111111111111111100010 N"
b11111111111111111111111111111111 G"
b11111111111111111111111111111111 >
b11111111111111111111111111111111 M"
1K"
1F
0L"
0H
b0 I"
b0 B
b0 O"
b0 J"
b0 D
b0 P"
b11 ]"
b11 V
b11 %#
b11111111111111111111111111100010 ^"
b11111111111111111111111111100010 S
b11111111111111111111111111100010 &#
b110 o"
1!
1#
#380000
0!
0#
#390000
b0 m
1s
1P
1u
1=
b10 l
b10 7
b10 w
b101 6"
b0 r
b0 ;
b0 y
b0 ="
b101 Q"
b101 ?
b101 ("
b101 W"
b0 @"
b0 2
b0 `
b0 F"
1B"
15
b0 :"
b0 -
b0 D"
b0 9"
b0 ,
b0 C"
0A"
03
b0 >"
bx .#
bx $
bx R
bx [
b0 1"
b0 +"
b0 &"
b0 *"
b11111111111111111111111111111111 ."
b11111111111111111111111111100010 z"
b11111111111111111111111111100010 \"
b11111111111111111111111111100010 U
b11111111111111111111111111100010 4"
b11111111111111111111111111100010 *#
b11111111111111111111111111111111 ["
b11111111111111111111111111111111 T
b11111111111111111111111111111111 3"
b11111111111111111111111111111111 )#
1_"
1W
0`"
0X
b0 ]"
b0 V
b0 %#
b0 ^"
b0 S
b0 &#
b101 G"
b101 >
b101 M"
1""
14
b0 ~
b0 /
b0 0"
b0 }
b0 2"
b0 .
b0 -"
b10 |
b10 +
b10 $"
b1111100 {
b1111100 *
b1111100 #"
b100000 ^
b100000 9
b100000 g
b100100 Z
b100100 J
b100100 \
b100100 %
b100100 Q
b100100 -#
1!
1#
#400000
0!
0#
#410000
b0 m
bx q
bx N
bx b"
0s
0P
bx n
bx K
bx a"
bx t
bx <
bx z
0u
0=
b0 l
b0 7
b0 w
b0 R"
b0 A
b0 )"
b0 X"
b0 Q"
b0 ?
b0 ("
b0 W"
0U"
0G
1V"
1I
bx f
bx j
bx a
bx c
b101000 Z
b101000 J
b101000 \
b101000 %
b101000 Q
b101000 -#
bx ]
bx 8
bx b
b100100 ^
b100100 9
b100100 g
b0 H"
b0 @
b0 N"
b0 G"
b0 >
b0 M"
0K"
0F
1L"
1H
b101 ["
b101 T
b101 3"
b101 )#
b11111111111111111111111111100010 ,#
b11111111111111111111111111100010 )
b11111111111111111111111111100010 '"
b11111111111111111111111111111111 +#
b11111111111111111111111111111111 (
b11111111111111111111111111111111 %"
1!
1#
#420000
0!
0#
#430000
0B"
05
bx ?"
bx 1
bx _
bx E"
b101 +#
b101 (
b101 %"
b0 \"
b0 U
b0 4"
b0 *#
b0 ["
b0 T
b0 3"
b0 )#
0_"
0W
1`"
1X
0""
04
bx !"
bx 0
bx 5"
b0 |
b0 +
b0 $"
b101000 ^
b101000 9
b101000 g
b101100 Z
b101100 J
b101100 \
b101100 %
b101100 Q
b101100 -#
1!
1#
#440000
0!
0#
#450000
0V"
0I
bx S"
bx C
bx d
bx Y"
b110000 Z
b110000 J
b110000 \
b110000 %
b110000 Q
b110000 -#
b101100 ^
b101100 9
b101100 g
0L"
0H
bx I"
bx B
bx O"
1!
1#
#460000
0!
0#
#470000
0`"
0X
bx ]"
bx V
bx %#
b110000 ^
b110000 9
b110000 g
b110100 Z
b110100 J
b110100 \
b110100 %
b110100 Q
b110100 -#
1!
1#
#480000
0!
0#
#490000
b111000 Z
b111000 J
b111000 \
b111000 %
b111000 Q
b111000 -#
b110100 ^
b110100 9
b110100 g
1!
1#
#500000
0!
0#
#510000
b111000 ^
b111000 9
b111000 g
b111100 Z
b111100 J
b111100 \
b111100 %
b111100 Q
b111100 -#
1!
1#
#520000
0!
0#
#530000
b1000000 Z
b1000000 J
b1000000 \
b1000000 %
b1000000 Q
b1000000 -#
b111100 ^
b111100 9
b111100 g
1!
1#
#540000
0!
0#
#550000
b1000000 ^
b1000000 9
b1000000 g
b1000100 Z
b1000100 J
b1000100 \
b1000100 %
b1000100 Q
b1000100 -#
1!
1#
#560000
0!
0#
#570000
b1001000 Z
b1001000 J
b1001000 \
b1001000 %
b1001000 Q
b1001000 -#
b1000100 ^
b1000100 9
b1000100 g
1!
1#
#580000
0!
0#
#590000
b1001000 ^
b1001000 9
b1001000 g
b1001100 Z
b1001100 J
b1001100 \
b1001100 %
b1001100 Q
b1001100 -#
1!
1#
#600000
0!
0#
#610000
b1010000 Z
b1010000 J
b1010000 \
b1010000 %
b1010000 Q
b1010000 -#
b1001100 ^
b1001100 9
b1001100 g
1!
1#
#620000
0!
0#
#630000
b1010000 ^
b1010000 9
b1010000 g
b1010100 Z
b1010100 J
b1010100 \
b1010100 %
b1010100 Q
b1010100 -#
1!
1#
#640000
0!
0#
#650000
b1011000 Z
b1011000 J
b1011000 \
b1011000 %
b1011000 Q
b1011000 -#
b1010100 ^
b1010100 9
b1010100 g
1!
1#
#660000
0!
0#
#670000
b1011000 ^
b1011000 9
b1011000 g
b1011100 Z
b1011100 J
b1011100 \
b1011100 %
b1011100 Q
b1011100 -#
1!
1#
#680000
0!
0#
#690000
b1100000 Z
b1100000 J
b1100000 \
b1100000 %
b1100000 Q
b1100000 -#
b1011100 ^
b1011100 9
b1011100 g
1!
1#
#700000
0!
0#
#710000
b1100000 ^
b1100000 9
b1100000 g
b1100100 Z
b1100100 J
b1100100 \
b1100100 %
b1100100 Q
b1100100 -#
1!
1#
#720000
0!
0#
#730000
b1101000 Z
b1101000 J
b1101000 \
b1101000 %
b1101000 Q
b1101000 -#
b1100100 ^
b1100100 9
b1100100 g
1!
1#
#740000
0!
0#
#750000
b1101000 ^
b1101000 9
b1101000 g
b1101100 Z
b1101100 J
b1101100 \
b1101100 %
b1101100 Q
b1101100 -#
1!
1#
#760000
0!
0#
