wave.vcd
$date
	Mon Sep  2 20:25:17 2019
$end
$version
	Icarus Verilog
$end
$timescale
	1ps
$end
$scope module openmips_min_sopc_tb $end
$var reg 1 ! CLOCK_50 $end
$var reg 1 " rst $end
$scope module openmips_min_sopc0 $end
$var wire 1 # clk $end
$var wire 32 $ inst [31:0] $end
$var wire 32 % inst_addr [31:0] $end
$var wire 1 & rom_ce $end
$var wire 1 ' rst $end
$scope module openmips0 $end
$var wire 1 # clk $end
$var wire 8 ( ex_aluop_i [7:0] $end
$var wire 32 ) ex_reg1_i [31:0] $end
$var wire 32 * ex_reg2_i [31:0] $end
$var wire 5 + ex_wd_i [4:0] $end
$var wire 5 , ex_wd_o [4:0] $end
$var wire 32 - ex_wdata_o [31:0] $end
$var wire 1 . ex_wreg_i $end
$var wire 1 / ex_wreg_o $end
$var wire 8 0 id_aluop_o [7:0] $end
$var wire 32 1 id_inst_i [31:0] $end
$var wire 32 2 id_pc_i [31:0] $end
$var wire 32 3 id_reg1_o [31:0] $end
$var wire 32 4 id_reg2_o [31:0] $end
$var wire 5 5 id_wd_o [4:0] $end
$var wire 1 6 id_wreg_o $end
$var wire 5 7 mem_wd_i [4:0] $end
$var wire 5 8 mem_wd_o [4:0] $end
$var wire 32 9 mem_wdata_i [31:0] $end
$var wire 32 : mem_wdata_o [31:0] $end
$var wire 1 ; mem_wreg_i $end
$var wire 1 < mem_wreg_o $end
$var wire 32 = pc [31:0] $end
$var wire 5 > reg1_addr [4:0] $end
$var wire 32 ? reg1_data [31:0] $end
$var wire 1 @ reg1_read $end
$var wire 5 A reg2_addr [4:0] $end
$var wire 32 B reg2_data [31:0] $end
$var wire 1 C reg2_read $end
$var wire 32 D rom_addr_o [31:0] $end
$var wire 1 & rom_ce_o $end
$var wire 32 E rom_data_i [31:0] $end
$var wire 1 ' rst $end
$var wire 32 F wb_data_i [31:0] $end
$var wire 5 G wb_wd_i [4:0] $end
$var wire 1 H wb_wreg_o $end
$scope module pc_reg0 $end
$var wire 1 # clk $end
$var wire 1 ' rst $end
$var reg 1 I ce $end
$var reg 32 J pc [31:0] $end
$upscope $end
$scope module if_id0 $end
$var wire 1 # clk $end
$var wire 32 K if_inst [31:0] $end
$var wire 32 L if_pc [31:0] $end
$var wire 1 ' rst $end
$var reg 32 M id_inst [31:0] $end
$var reg 32 N id_pc [31:0] $end
$upscope $end
$scope module id_0 $end
$var wire 5 O ex_wd_i [4:0] $end
$var wire 32 P ex_wdata_i [31:0] $end
$var wire 1 / ex_wreg_i $end
$var wire 6 Q funct [5:0] $end
$var wire 32 R inst_i [31:0] $end
$var wire 26 S jump_addr [25:0] $end
$var wire 5 T mem_wd_i [4:0] $end
$var wire 32 U mem_wdata_i [31:0] $end
$var wire 1 < mem_wreg_i $end
$var wire 6 V opcode [5:0] $end
$var wire 32 W pc_i [31:0] $end
$var wire 32 X reg1_data_i [31:0] $end
$var wire 32 Y reg2_data_i [31:0] $end
$var wire 1 ' rst $end
$var wire 5 Z shamt [4:0] $end
$var reg 8 [ aluop_o [7:0] $end
$var reg 33 \ imm [32:0] $end
$var reg 5 ] reg1_addr_o [4:0] $end
$var reg 32 ^ reg1_o [31:0] $end
$var reg 1 _ reg1_read_o $end
$var reg 5 ` reg2_addr_o [4:0] $end
$var reg 32 a reg2_o [31:0] $end
$var reg 1 b reg2_read_o $end
$var reg 5 c wd_o [4:0] $end
$var reg 1 d wreg_o $end
$upscope $end
$scope module id_ex0 $end
$var wire 1 # clk $end
$var wire 8 e id_aluop [7:0] $end
$var wire 32 f id_reg1 [31:0] $end
$var wire 32 g id_reg2 [31:0] $end
$var wire 5 h id_wd [4:0] $end
$var wire 1 6 id_wreg $end
$var wire 1 ' rst $end
$var reg 8 i ex_aluop [7:0] $end
$var reg 32 j ex_reg1 [31:0] $end
$var reg 32 k ex_reg2 [31:0] $end
$var reg 5 l ex_wd [4:0] $end
$var reg 1 m ex_wreg $end
$upscope $end
$scope module ex_0 $end
$var wire 8 n aluop_i [7:0] $end
$var wire 32 o reg1_i [31:0] $end
$var wire 32 p reg2_i [31:0] $end
$var wire 1 ' rst $end
$var wire 5 q wd_i [4:0] $end
$var wire 1 . wreg_i $end
$var reg 5 r wd_o [4:0] $end
$var reg 32 s wdata_o [31:0] $end
$var reg 1 t wreg_o $end
$upscope $end
$scope module ex_mem0 $end
$var wire 1 # clk $end
$var wire 5 u ex_wd [4:0] $end
$var wire 32 v ex_wdata [31:0] $end
$var wire 1 / ex_wreg $end
$var wire 1 ' rst $end
$var reg 5 w mem_wd [4:0] $end
$var reg 32 x mem_wdata [31:0] $end
$var reg 1 y mem_wreg $end
$upscope $end
$scope module mem0 $end
$var wire 1 ' rst $end
$var wire 5 z wd_i [4:0] $end
$var wire 32 { wdata_i [31:0] $end
$var wire 1 ; wreg_i $end
$var reg 5 | wd_o [4:0] $end
$var reg 32 } wdata_o [31:0] $end
$var reg 1 ~ wreg_o $end
$upscope $end
$scope module mem_wb0 $end
$var wire 1 # clk $end
$var wire 5 !" mem_wd [4:0] $end
$var wire 32 "" mem_wdata [31:0] $end
$var wire 1 < mem_wreg $end
$var wire 1 ' rst $end
$var reg 5 #" wb_wd [4:0] $end
$var reg 32 $" wb_wdata [31:0] $end
$var reg 1 %" wb_wreg $end
$upscope $end
$scope module regfile0 $end
$var wire 1 # clk $end
$var wire 5 &" raddr1 [4:0] $end
$var wire 5 '" raddr2 [4:0] $end
$var wire 1 @ re1 $end
$var wire 1 C re2 $end
$var wire 32 (" regs_0 [31:0] $end
$var wire 32 )" regs_1 [31:0] $end
$var wire 32 *" regs_10 [31:0] $end
$var wire 32 +" regs_11 [31:0] $end
$var wire 32 ," regs_12 [31:0] $end
$var wire 32 -" regs_13 [31:0] $end
$var wire 32 ." regs_14 [31:0] $end
$var wire 32 /" regs_15 [31:0] $end
$var wire 32 0" regs_16 [31:0] $end
$var wire 32 1" regs_17 [31:0] $end
$var wire 32 2" regs_18 [31:0] $end
$var wire 32 3" regs_19 [31:0] $end
$var wire 32 4" regs_2 [31:0] $end
$var wire 32 5" regs_20 [31:0] $end
$var wire 32 6" regs_21 [31:0] $end
$var wire 32 7" regs_22 [31:0] $end
$var wire 32 8" regs_23 [31:0] $end
$var wire 32 9" regs_24 [31:0] $end
$var wire 32 :" regs_25 [31:0] $end
$var wire 32 ;" regs_26 [31:0] $end
$var wire 32 <" regs_27 [31:0] $end
$var wire 32 =" regs_28 [31:0] $end
$var wire 32 >" regs_29 [31:0] $end
$var wire 32 ?" regs_3 [31:0] $end
$var wire 32 @" regs_30 [31:0] $end
$var wire 32 A" regs_31 [31:0] $end
$var wire 32 B" regs_4 [31:0] $end
$var wire 32 C" regs_5 [31:0] $end
$var wire 32 D" regs_6 [31:0] $end
$var wire 32 E" regs_7 [31:0] $end
$var wire 32 F" regs_8 [31:0] $end
$var wire 32 G" regs_9 [31:0] $end
$var wire 1 ' rst $end
$var wire 5 H" waddr [4:0] $end
$var wire 32 I" wdata [31:0] $end
$var wire 1 H we $end
$var reg 32 J" rdata1 [31:0] $end
$var reg 32 K" rdata2 [31:0] $end
$upscope $end
$upscope $end
$scope module inst_rom0 $end
$var wire 32 L" addr [31:0] $end
$var wire 1 & ce $end
$var reg 32 M" inst [31:0] $end
$upscope $end
$upscope $end
$upscope $end
$enddefinitions $end
#0
$dumpvars
bx M"
bx L"
b0 K"
b0 J"
bx I"
bx H"
bz G"
bz F"
bz E"
bz D"
bz C"
bz B"
bz A"
bz @"
bz ?"
bz >"
bz ="
bz <"
bz ;"
bz :"
bz 9"
bz 8"
bz 7"
bz 6"
bz 5"
bz 4"
bz 3"
bz 2"
bz 1"
bz 0"
bz /"
bz ."
bz -"
bz ,"
bz +"
bz *"
bz )"
b0 ("
b0 '"
b0 &"
x%"
bx $"
bx #"
b0 ""
b0 !"
0~
b0 }
b0 |
bx {
bx z
xy
bx x
bx w
b0 v
b0 u
0t
b0 s
b0 r
bx q
bx p
bx o
bx n
xm
bx l
bx k
bx j
bx i
b0 h
b0 g
b0 f
b0 e
0d
b0 c
0b
b0 a
b0 `
0_
b0 ^
b0 ]
b0 \
b0 [
bx Z
b0 Y
b0 X
bx W
bx V
b0 U
b0 T
bx S
bx R
bx Q
b0 P
b0 O
bx N
bx M
bx L
bx K
bx J
xI
xH
bx G
bx F
bx E
bx D
0C
b0 B
b0 A
0@
b0 ?
b0 >
bx =
0<
x;
b0 :
bx 9
b0 8
bx 7
06
b0 5
b0 4
b0 3
bx 2
bx 1
b0 0
0/
x.
b0 -
b0 ,
bx +
bx *
bx )
bx (
1'
x&
bx %
bx $
0#
1"
0!
$end
#10000
b0 M"
b0 $
b0 E
b0 K
b0 V
b0 Z
b0 Q
b0 S
0I
0&
b0 J
b0 =
b0 L
b0 %
b0 D
b0 L"
b0 M
b0 1
b0 R
b0 N
b0 2
b0 W
0m
0.
b0 l
b0 +
b0 q
b0 k
b0 *
b0 p
b0 j
b0 )
b0 o
b0 i
b0 (
b0 n
0y
0;
b0 w
b0 7
b0 z
b0 x
b0 9
b0 {
0%"
0H
b0 #"
b0 G
b0 H"
b0 $"
b0 F
b0 I"
1!
1#
#20000
0!
0#
#30000
1!
1#
#40000
0!
0#
#50000
1!
1#
#60000
0!
0#
#70000
1!
1#
#80000
0!
0#
#90000
1!
1#
#100000
0!
0#
#110000
1!
1#
#120000
0!
0#
#130000
1!
1#
#140000
0!
0#
#150000
1!
1#
#160000
0!
0#
#170000
1!
1#
#180000
0!
0#
#190000
1!
1#
#195000
1b
1C
1d
16
b0 \
b1111100 [
b1111100 0
b1111100 e
0"
0'
#200000
0!
0#
#210000
b111100000000010000000100000001 M"
b111100000000010000000100000001 $
b111100000000010000000100000001 E
b111100000000010000000100000001 K
1t
1/
1I
1&
1m
1.
b1111100 i
b1111100 (
b1111100 n
1!
1#
#220000
0!
0#
#230000
b1000000010000000000000000 a
b1000000010000000000000000 4
b1000000010000000000000000 g
1_
1@
b1 c
b1 5
b1 h
b100101 [
b100101 0
b100101 e
1~
1<
b1000000010000000000000000 \
b1 `
b1 A
b1 '"
0b
0C
1d
16
b110100001000010000000100000001 M"
b110100001000010000000100000001 $
b110100001000010000000100000001 E
b110100001000010000000100000001 K
b1111 V
b100 Z
b1 Q
b10000000100000001 S
1y
1;
b111100000000010000000100000001 M
b111100000000010000000100000001 1
b111100000000010000000100000001 R
b100 J
b100 =
b100 L
b100 %
b100 D
b100 L"
1!
1#
#240000
0!
0#
#250000
bx J"
bx ?
bx X
b1000000010000000000000000 ^
b1000000010000000000000000 3
b1000000010000000000000000 f
b100000001 a
b100000001 4
b100000001 g
b110100001000100001000100000000 M"
b110100001000100001000100000000 $
b110100001000100001000100000000 E
b110100001000100001000100000000 K
b100000001 \
b1 ]
b1 >
b1 &"
1_
1@
b1 c
b1 5
b1 h
1d
16
b1000000010000000000000000 s
b1000000010000000000000000 -
b1000000010000000000000000 P
b1000000010000000000000000 v
b1 r
b1 ,
b1 O
b1 u
b1101 V
b1000010000000100000001 S
b1000 J
b1000 =
b1000 L
b1000 %
b1000 D
b1000 L"
b110100001000010000000100000001 M
b110100001000010000000100000001 1
b110100001000010000000100000001 R
b100 N
b100 2
b100 W
b1 l
b1 +
b1 q
b1000000010000000000000000 k
b1000000010000000000000000 *
b1000000010000000000000000 p
b100101 i
b100101 (
b100101 n
1%"
1H
1!
1#
#260000
0!
0#
#270000
b1000100000000 a
b1000100000000 4
b1000100000000 g
b1000000010000000100000001 ^
b1000000010000000100000001 3
b1000000010000000100000001 f
b1 |
b1 8
b1 T
b1 !"
b1000000010000000000000000 }
b1000000010000000000000000 :
b1000000010000000000000000 U
b1000000010000000000000000 ""
b1000000010000000100000001 s
b1000000010000000100000001 -
b1000000010000000100000001 P
b1000000010000000100000001 v
b1000100000000 \
b10 `
b10 A
b10 '"
1_
1@
b10 c
b10 5
b10 h
1d
16
b1000100000100000100101 M"
b1000100000100000100101 $
b1000100000100000100101 E
b1000100000100000100101 K
b0 Q
b1000100001000100000000 S
b1 w
b1 7
b1 z
b1000000010000000000000000 x
b1000000010000000000000000 9
b1000000010000000000000000 {
b100000001 k
b100000001 *
b100000001 p
b1000000010000000000000000 j
b1000000010000000000000000 )
b1000000010000000000000000 o
b110100001000100001000100000000 M
b110100001000100001000100000000 1
b110100001000100001000100000000 R
b1000 N
b1000 2
b1000 W
b1100 J
b1100 =
b1100 L
b1100 %
b1100 D
b1100 L"
1!
1#
#280000
0!
0#
#290000
bx K"
bx B
bx Y
b1000000010001000100000001 a
b1000000010001000100000001 4
b1000000010001000100000001 g
1b
1C
b110000001000110000000011111110 M"
b110000001000110000000011111110 $
b110000001000110000000011111110 E
b110000001000110000000011111110 K
b0 \
1_
1@
b1 c
b1 5
b1 h
1d
16
b1000000010001000100000001 s
b1000000010001000100000001 -
b1000000010001000100000001 P
b1000000010001000100000001 v
b10 r
b10 ,
b10 O
b10 u
b1000000010000000100000001 }
b1000000010000000100000001 :
b1000000010000000100000001 U
b1000000010000000100000001 ""
b1000000010000000000000000 J"
b1000000010000000000000000 ?
b1000000010000000000000000 X
b0 V
b0 Z
b100101 Q
b1000100000100000100101 S
b10000 J
b10000 =
b10000 L
b10000 %
b10000 D
b10000 L"
b1000100000100000100101 M
b1000100000100000100101 1
b1000100000100000100101 R
b1100 N
b1100 2
b1100 W
b10 l
b10 +
b10 q
b1000100000000 k
b1000100000000 *
b1000100000000 p
b1000000010000000100000001 j
b1000000010000000100000001 )
b1000000010000000100000001 o
b1000000010000000100000001 x
b1000000010000000100000001 9
b1000000010000000100000001 {
b1 #"
b1 G
b1 H"
b1000000010000000000000000 $"
b1000000010000000000000000 F
b1000000010000000000000000 I"
1!
1#
#300000
0!
0#
#310000
b0 K"
b0 B
b0 Y
b11111110 a
b11111110 4
b11111110 g
b1000000010001000100000001 ^
b1000000010001000100000001 3
b1000000010001000100000001 f
b11111110 \
b100100 [
b100100 0
b100100 e
b1000000010000000100000001 J"
b1000000010000000100000001 ?
b1000000010000000100000001 X
b10 |
b10 8
b10 T
b10 !"
b1000000010001000100000001 }
b1000000010001000100000001 :
b1000000010001000100000001 U
b1000000010001000100000001 ""
b1 r
b1 ,
b1 O
b1 u
b11 `
b11 A
b11 '"
0b
0C
1_
1@
b11 c
b11 5
b11 h
1d
16
b11000010000100000100100 M"
b11000010000100000100100 $
b11000010000100000100100 E
b11000010000100000100100 K
b1100 V
b11 Z
b111110 Q
b1000110000000011111110 S
b1000000010000000000000000 )"
b1000000010000000100000001 $"
b1000000010000000100000001 F
b1000000010000000100000001 I"
b10 w
b10 7
b10 z
b1000000010001000100000001 x
b1000000010001000100000001 9
b1000000010001000100000001 {
b1 l
b1 +
b1 q
b1000000010001000100000001 k
b1000000010001000100000001 *
b1000000010001000100000001 p
b110000001000110000000011111110 M
b110000001000110000000011111110 1
b110000001000110000000011111110 R
b10000 N
b10000 2
b10000 W
b10100 J
b10100 =
b10100 L
b10100 %
b10100 D
b10100 L"
1!
1#
#320000
0!
0#
#330000
b1000000010000000100000001 K"
b1000000010000000100000001 B
b1000000010000000100000001 Y
bx J"
bx ?
bx X
b0 ^
b0 3
b0 f
b1000000010001000100000001 a
b1000000010001000100000001 4
b1000000010001000100000001 g
1b
1C
b111000001001001111111100000000 M"
b111000001001001111111100000000 $
b111000001001001111111100000000 E
b111000001001001111111100000000 K
b0 \
b1 `
b1 A
b1 '"
b11 ]
b11 >
b11 &"
1_
1@
b1 c
b1 5
b1 h
1d
16
b0 s
b0 -
b0 P
b0 v
b11 r
b11 ,
b11 O
b11 u
b1 |
b1 8
b1 T
b1 !"
b0 V
b0 Z
b100100 Q
b11000010000100000100100 S
b11000 J
b11000 =
b11000 L
b11000 %
b11000 D
b11000 L"
b11000010000100000100100 M
b11000010000100000100100 1
b11000010000100000100100 R
b10100 N
b10100 2
b10100 W
b11 l
b11 +
b11 q
b11111110 k
b11111110 *
b11111110 p
b1000000010001000100000001 j
b1000000010001000100000001 )
b1000000010001000100000001 o
b100100 i
b100100 (
b100100 n
b1 w
b1 7
b1 z
b10 #"
b10 G
b10 H"
b1000000010001000100000001 $"
b1000000010001000100000001 F
b1000000010001000100000001 I"
b1000000010000000100000001 )"
1!
1#
#340000
0!
0#
#350000
b1111111100000000 a
b1111111100000000 4
b1111111100000000 g
b1000000010001000100000001 J"
b1000000010001000100000001 ?
b1000000010001000100000001 X
b1111111100000000 \
b100110 [
b100110 0
b100110 e
b0 K"
b0 B
b0 Y
b11 |
b11 8
b11 T
b11 !"
b0 }
b0 :
b0 U
b0 ""
b1 r
b1 ,
b1 O
b1 u
b100 `
b100 A
b100 '"
0b
0C
b1 ]
b1 >
b1 &"
1_
1@
b100 c
b100 5
b100 h
1d
16
b100000010000100000100110 M"
b100000010000100000100110 $
b100000010000100000100110 E
b100000010000100000100110 K
b1110 V
b11100 Z
b0 Q
b1001001111111100000000 S
b1000000010001000100000001 4"
b1 #"
b1 G
b1 H"
b11 w
b11 7
b11 z
b0 x
b0 9
b0 {
b1 l
b1 +
b1 q
b1000000010001000100000001 k
b1000000010001000100000001 *
b1000000010001000100000001 p
b0 j
b0 )
b0 o
b111000001001001111111100000000 M
b111000001001001111111100000000 1
b111000001001001111111100000000 R
b11000 N
b11000 2
b11000 W
b11100 J
b11100 =
b11100 L
b11100 %
b11100 D
b11100 L"
1!
1#
#360000
0!
0#
#370000
b1000000010001000100000001 K"
b1000000010001000100000001 B
b1000000010001000100000001 Y
bx J"
bx ?
bx X
b1111111100000000 ^
b1111111100000000 3
b1111111100000000 f
b0 a
b0 4
b0 g
1b
1C
b100000010000100000100111 M"
b100000010000100000100111 $
b100000010000100000100111 E
b100000010000100000100111 K
b0 \
b1 `
b1 A
b1 '"
b100 ]
b100 >
b100 &"
1_
1@
b1 c
b1 5
b1 h
1d
16
b1111111100000000 s
b1111111100000000 -
b1111111100000000 P
b1111111100000000 v
b100 r
b100 ,
b100 O
b100 u
b1 |
b1 8
b1 T
b1 !"
b0 V
b0 Z
b100110 Q
b100000010000100000100110 S
b100000 J
b100000 =
b100000 L
b100000 %
b100000 D
b100000 L"
b100000010000100000100110 M
b100000010000100000100110 1
b100000010000100000100110 R
b11100 N
b11100 2
b11100 W
b100 l
b100 +
b100 q
b1111111100000000 k
b1111111100000000 *
b1111111100000000 p
b100110 i
b100110 (
b100110 n
b1 w
b1 7
b1 z
b11 #"
b11 G
b11 H"
b0 $"
b0 F
b0 I"
b1000000010001000100000001 )"
1!
1#
#380000
0!
0#
#390000
b1111111100000000 a
b1111111100000000 4
b1111111100000000 g
b100111 [
b100111 0
b100111 e
b0 K"
b0 B
b0 Y
b100 |
b100 8
b100 T
b100 !"
b1111111100000000 }
b1111111100000000 :
b1111111100000000 U
b1111111100000000 ""
b1 r
b1 ,
b1 O
b1 u
1b
1C
1_
1@
1d
16
bx M"
bx $
bx E
bx K
b100111 Q
b100000010000100000100111 S
b0 ?"
b1 #"
b1 G
b1 H"
b100 w
b100 7
b100 z
b1111111100000000 x
b1111111100000000 9
b1111111100000000 {
b1 l
b1 +
b1 q
b0 k
b0 *
b0 p
b1111111100000000 j
b1111111100000000 )
b1111111100000000 o
b100000010000100000100111 M
b100000010000100000100111 1
b100000010000100000100111 R
b100000 N
b100000 2
b100000 W
b100100 J
b100100 =
b100100 L
b100100 %
b100100 D
b100100 L"
1!
1#
#400000
0!
0#
#410000
b0 a
b0 4
b0 g
b0 ^
b0 3
b0 f
bx `
bx A
bx '"
0b
0C
bx ]
bx >
bx &"
0_
0@
bx c
bx 5
bx h
0d
06
b11111111111111110000000011111111 s
b11111111111111110000000011111111 -
b11111111111111110000000011111111 P
b11111111111111110000000011111111 v
b1 |
b1 8
b1 T
b1 !"
b0 J"
b0 ?
b0 X
bx V
bx Z
bx Q
bx S
b101000 J
b101000 =
b101000 L
b101000 %
b101000 D
b101000 L"
bx M
bx 1
bx R
b100100 N
b100100 2
b100100 W
b1111111100000000 k
b1111111100000000 *
b1111111100000000 p
b100111 i
b100111 (
b100111 n
b1 w
b1 7
b1 z
b100 #"
b100 G
b100 H"
b1111111100000000 $"
b1111111100000000 F
b1111111100000000 I"
b0 )"
1!
1#
#420000
0!
0#
#430000
b11111111111111110000000011111111 }
b11111111111111110000000011111111 :
b11111111111111110000000011111111 U
b11111111111111110000000011111111 ""
b11111111111111111111111111111111 s
b11111111111111111111111111111111 -
b11111111111111111111111111111111 P
b11111111111111111111111111111111 v
0t
0/
bx r
bx ,
bx O
bx u
b1111111100000000 B"
b1 #"
b1 G
b1 H"
b11111111111111110000000011111111 x
b11111111111111110000000011111111 9
b11111111111111110000000011111111 {
0m
0.
bx l
bx +
bx q
b0 k
b0 *
b0 p
b0 j
b0 )
b0 o
b101000 N
b101000 2
b101000 W
b101100 J
b101100 =
b101100 L
b101100 %
b101100 D
b101100 L"
1!
1#
#440000
0!
0#
#450000
0~
0<
bx |
bx 8
bx T
bx !"
b11111111111111111111111111111111 }
b11111111111111111111111111111111 :
b11111111111111111111111111111111 U
b11111111111111111111111111111111 ""
b110000 J
b110000 =
b110000 L
b110000 %
b110000 D
b110000 L"
b101100 N
b101100 2
b101100 W
0y
0;
bx w
bx 7
bx z
b11111111111111111111111111111111 x
b11111111111111111111111111111111 9
b11111111111111111111111111111111 {
b11111111111111110000000011111111 $"
b11111111111111110000000011111111 F
b11111111111111110000000011111111 I"
b1111111100000000 )"
1!
1#
#460000
0!
0#
#470000
b11111111111111110000000011111111 )"
0%"
0H
bx #"
bx G
bx H"
b11111111111111111111111111111111 $"
b11111111111111111111111111111111 F
b11111111111111111111111111111111 I"
b110000 N
b110000 2
b110000 W
b110100 J
b110100 =
b110100 L
b110100 %
b110100 D
b110100 L"
1!
1#
#480000
0!
0#
#490000
b111000 J
b111000 =
b111000 L
b111000 %
b111000 D
b111000 L"
b110100 N
b110100 2
b110100 W
1!
1#
#500000
0!
0#
#510000
b111000 N
b111000 2
b111000 W
b111100 J
b111100 =
b111100 L
b111100 %
b111100 D
b111100 L"
1!
1#
#520000
0!
0#
#530000
b1000000 J
b1000000 =
b1000000 L
b1000000 %
b1000000 D
b1000000 L"
b111100 N
b111100 2
b111100 W
1!
1#
#540000
0!
0#
#550000
b1000000 N
b1000000 2
b1000000 W
b1000100 J
b1000100 =
b1000100 L
b1000100 %
b1000100 D
b1000100 L"
1!
1#
#560000
0!
0#
#570000
b1001000 J
b1001000 =
b1001000 L
b1001000 %
b1001000 D
b1001000 L"
b1000100 N
b1000100 2
b1000100 W
1!
1#
#580000
0!
0#
#590000
b1001000 N
b1001000 2
b1001000 W
b1001100 J
b1001100 =
b1001100 L
b1001100 %
b1001100 D
b1001100 L"
1!
1#
#600000
0!
0#
#610000
b1010000 J
b1010000 =
b1010000 L
b1010000 %
b1010000 D
b1010000 L"
b1001100 N
b1001100 2
b1001100 W
1!
1#
#620000
0!
0#
#630000
b1010000 N
b1010000 2
b1010000 W
b1010100 J
b1010100 =
b1010100 L
b1010100 %
b1010100 D
b1010100 L"
1!
1#
#640000
0!
0#
#650000
b1011000 J
b1011000 =
b1011000 L
b1011000 %
b1011000 D
b1011000 L"
b1010100 N
b1010100 2
b1010100 W
1!
1#
#660000
0!
0#
#670000
b1011000 N
b1011000 2
b1011000 W
b1011100 J
b1011100 =
b1011100 L
b1011100 %
b1011100 D
b1011100 L"
1!
1#
#680000
0!
0#
#690000
b1100000 J
b1100000 =
b1100000 L
b1100000 %
b1100000 D
b1100000 L"
b1011100 N
b1011100 2
b1011100 W
1!
1#
#700000
0!
0#
#710000
b1100000 N
b1100000 2
b1100000 W
b1100100 J
b1100100 =
b1100100 L
b1100100 %
b1100100 D
b1100100 L"
1!
1#
#720000
0!
0#
#730000
b1101000 J
b1101000 =
b1101000 L
b1101000 %
b1101000 D
b1101000 L"
b1100100 N
b1100100 2
b1100100 W
1!
1#
#740000
0!
0#
#750000
b1101000 N
b1101000 2
b1101000 W
b1101100 J
b1101100 =
b1101100 L
b1101100 %
b1101100 D
b1101100 L"
1!
1#
#760000
0!
0#
#770000
b1110000 J
b1110000 =
b1110000 L
b1110000 %
b1110000 D
b1110000 L"
b1101100 N
b1101100 2
b1101100 W
1!
1#
#780000
0!
0#
#790000
b1110000 N
b1110000 2
b1110000 W
b1110100 J
b1110100 =
b1110100 L
b1110100 %
b1110100 D
b1110100 L"
1!
1#
#800000
0!
0#
#810000
b1111000 J
b1111000 =
b1111000 L
b1111000 %
b1111000 D
b1111000 L"
b1110100 N
b1110100 2
b1110100 W
1!
1#
#820000
0!
0#
#830000
b1111000 N
b1111000 2
b1111000 W
b1111100 J
b1111100 =
b1111100 L
b1111100 %
b1111100 D
b1111100 L"
1!
1#
#840000
0!
0#
#850000
b10000000 J
b10000000 =
b10000000 L
b10000000 %
b10000000 D
b10000000 L"
b1111100 N
b1111100 2
b1111100 W
1!
1#
#860000
0!
0#
#870000
b10000000 N
b10000000 2
b10000000 W
b10000100 J
b10000100 =
b10000100 L
b10000100 %
b10000100 D
b10000100 L"
1!
1#
#880000
0!
0#
#890000
b10001000 J
b10001000 =
b10001000 L
b10001000 %
b10001000 D
b10001000 L"
b10000100 N
b10000100 2
b10000100 W
1!
1#
#900000
0!
0#
#910000
b10001000 N
b10001000 2
b10001000 W
b10001100 J
b10001100 =
b10001100 L
b10001100 %
b10001100 D
b10001100 L"
1!
1#
#920000
0!
0#
#930000
b10010000 J
b10010000 =
b10010000 L
b10010000 %
b10010000 D
b10010000 L"
b10001100 N
b10001100 2
b10001100 W
1!
1#
#940000
0!
0#
#950000
b10010000 N
b10010000 2
b10010000 W
b10010100 J
b10010100 =
b10010100 L
b10010100 %
b10010100 D
b10010100 L"
1!
1#
#960000
0!
0#
#970000
b10011000 J
b10011000 =
b10011000 L
b10011000 %
b10011000 D
b10011000 L"
b10010100 N
b10010100 2
b10010100 W
1!
1#
#980000
0!
0#
#990000
b10011000 N
b10011000 2
b10011000 W
b10011100 J
b10011100 =
b10011100 L
b10011100 %
b10011100 D
b10011100 L"
1!
1#
#1000000
0!
0#
#1010000
b10100000 J
b10100000 =
b10100000 L
b10100000 %
b10100000 D
b10100000 L"
b10011100 N
b10011100 2
b10011100 W
1!
1#
#1020000
0!
0#
#1030000
b10100000 N
b10100000 2
b10100000 W
b10100100 J
b10100100 =
b10100100 L
b10100100 %
b10100100 D
b10100100 L"
1!
1#
#1040000
0!
0#
#1050000
b10101000 J
b10101000 =
b10101000 L
b10101000 %
b10101000 D
b10101000 L"
b10100100 N
b10100100 2
b10100100 W
1!
1#
#1060000
0!
0#
#1070000
b10101000 N
b10101000 2
b10101000 W
b10101100 J
b10101100 =
b10101100 L
b10101100 %
b10101100 D
b10101100 L"
1!
1#
#1080000
0!
0#
#1090000
b10110000 J
b10110000 =
b10110000 L
b10110000 %
b10110000 D
b10110000 L"
b10101100 N
b10101100 2
b10101100 W
1!
1#
#1100000
0!
0#
#1110000
b10110000 N
b10110000 2
b10110000 W
b10110100 J
b10110100 =
b10110100 L
b10110100 %
b10110100 D
b10110100 L"
1!
1#
#1120000
0!
0#
#1130000
b10111000 J
b10111000 =
b10111000 L
b10111000 %
b10111000 D
b10111000 L"
b10110100 N
b10110100 2
b10110100 W
1!
1#
#1140000
0!
0#
#1150000
b10111000 N
b10111000 2
b10111000 W
b10111100 J
b10111100 =
b10111100 L
b10111100 %
b10111100 D
b10111100 L"
1!
1#
#1160000
0!
0#
#1170000
b11000000 J
b11000000 =
b11000000 L
b11000000 %
b11000000 D
b11000000 L"
b10111100 N
b10111100 2
b10111100 W
1!
1#
#1180000
0!
0#
#1190000
b11000000 N
b11000000 2
b11000000 W
b11000100 J
b11000100 =
b11000100 L
b11000100 %
b11000100 D
b11000100 L"
1!
1#
